bdw_work/sims/DPO_AUTO_OP_V/verilog.vcd
$date
    May 26, 2023  15:15:08
$end
$version
    TOOL:	xmsim(64)	22.03-s003
$end
$timescale
    1 ps
$end

$scope module top $end

$scope module dut0 $end
$var reg       1 !    clk $end
$var reg       1 "    rst $end
$var wire      1 #    din_busy  $end
$var reg       1 $    din_vld $end
$var reg       1 %    din_data $end
$var reg       1 &    dout_busy $end
$var wire      1 '    dout_vld  $end
$var wire     16 (    dout_data [15:0] $end

$scope module dut0 $end
$var wire      1 )    clk  $end
$var wire      1 *    rst  $end
$var wire      1 +    din_vld  $end
$var wire      1 ,    din_data  $end
$var wire      1 -    dout_busy  $end
$var wire      1 #    din_busy  $end
$var wire      1 '    dout_vld  $end
$var reg      16 .    dout_data [15:0] $end
$var reg       1 /    dout_m_req_m_prev_trig_req $end
$var reg       1 0    dout_m_unacked_req $end
$var wire      1 1    dut_Xor_1Ux1U_1U_1_1_out1  $end
$var wire      1 2    dut_Or_1Ux1U_1U_4_2_out1  $end
$var reg       1 3    dut_N_Muxb_1_2_16_4_4_out1 $end
$var reg       1 4    din_m_unvalidated_req $end
$var wire      1 5    dut_gen_busy_r_4_64_gnew_req  $end
$var wire      1 6    dut_gen_busy_r_4_64_gdiv  $end
$var wire      1 7    dut_gen_busy_r_4_64_din_gen_busy_din_m_data_is_invalid_next  $end
$var reg       3 8    global_state_next [2:0] $end
$var wire      5 9    dut_LessThan_1U_17_1_61_in1 [4:0] $end
$var reg      16 :    dut_N_Mux_16_2_25_4_53_out1 [15:0] $end
$var reg      16 ;    dut_N_Mux_16_2_25_4_52_out1 [15:0] $end
$var reg      16 <    dut_N_Mux_16_2_25_4_51_out1 [15:0] $end
$var reg      16 =    dut_N_Mux_16_2_25_4_50_out1 [15:0] $end
$var reg      16 >    dut_N_Mux_16_2_25_4_49_out1 [15:0] $end
$var reg      16 ?    dut_N_Mux_16_2_25_4_48_out1 [15:0] $end
$var reg      16 @    dut_N_Mux_16_2_25_4_47_out1 [15:0] $end
$var reg      16 A    dut_N_Mux_16_2_25_4_45_out1 [15:0] $end
$var wire     16 B    dut_Add_16Ux16U_16U_4_44_out1 [15:0] $end
$var wire      1 C    dut_And_1Ux1U_1U_4_43_out1  $end
$var wire      1 D    dut_And_1Ux1U_1U_4_42_out1  $end
$var wire      5 E    dut_LessThan_1U_17_1_41_in1 [4:0] $end
$var wire      1 F    dut_And_1Ux1U_1U_4_40_out1  $end
$var reg      16 G    dut_N_Mux_16_2_26_4_39_out1 [15:0] $end
$var reg      16 H    dut_N_Mux_16_2_24_4_38_out1 [15:0] $end
$var reg      16 I    dut_N_Mux_16_2_24_4_37_out1 [15:0] $end
$var reg      16 J    dut_N_Mux_16_2_24_4_36_out1 [15:0] $end
$var reg      16 K    dut_N_Mux_16_2_24_4_35_out1 [15:0] $end
$var reg      16 L    dut_N_Mux_16_2_24_4_34_out1 [15:0] $end
$var reg      16 M    dut_N_Mux_16_2_24_4_33_out1 [15:0] $end
$var reg      16 N    dut_N_Mux_16_2_24_4_32_out1 [15:0] $end
$var reg      16 O    dut_N_Mux_16_8_23_4_31_out1 [15:0] $end
$var reg      16 P    dut_N_Mux_16_8_22_4_30_out1 [15:0] $end
$var wire      1 Q    dut_Not_1U_1U_4_29_out1  $end
$var wire      1 R    dut_Equal_1U_12_4_10_out1  $end
$var wire      1 S    dut_Equal_1U_13_4_9_out1  $end
$var wire      1 T    dut_Equal_1U_14_4_8_out1  $end
$var reg       3 U    dut_Equal_1U_14_4_8_in1 [2:0] $end
$var reg       4 V    dut_GreaterThan_1U_15_4_7_in1_slice [3:0] $end
$var reg       1 W    gs_ctrl_thread1_h8 $end
$var reg       3 X    dut_Add_4U_6_4_6_in1 [2:0] $end
$var reg       1 Y    gs_ctrl_thread1_h10 $end
$var reg      16 Z    dut_N_Mux_16_2_25_4_57_out1 [15:0] $end
$var reg      16 [    s_reg_9 [15:0] $end
$var reg      16 \    dut_N_Mux_16_2_25_4_58_out1 [15:0] $end
$var reg      16 ]    s_reg_8 [15:0] $end
$var reg      16 ^    dut_N_Mux_16_2_25_4_59_out1 [15:0] $end
$var reg      16 _    s_reg_7 [15:0] $end
$var wire      4 `    dut_Add_4U_6_4_6_out1 [3:0] $end
$var reg       4 a    s_reg_6_slice [3:0] $end
$var reg       1 b    s_reg_33 $end
$var wire      1 c    dut_Equal_1U_5_4_24_out1  $end
$var reg       1 d    s_reg_29 $end
$var wire      1 e    dut_Equal_1U_10_4_22_out1  $end
$var reg       1 f    s_reg_27 $end
$var wire      1 g    dut_Equal_1U_11_4_15_out1  $end
$var reg       1 h    s_reg_26 $end
$var wire      1 i    dut_Equal_1U_12_4_20_out1  $end
$var reg       1 j    s_reg_25 $end
$var wire      1 k    dut_Equal_1U_13_4_19_out1  $end
$var wire      1 l    dut_And_1Ux1U_1U_4_26_out1  $end
$var reg       1 m    s_reg_24 $end
$var wire      1 n    dut_Equal_1U_14_4_18_out1  $end
$var wire      1 o    dut_And_1Ux1U_1U_4_25_out1  $end
$var reg       1 p    s_reg_23 $end
$var wire      1 q    dut_Equal_1U_8_4_23_out1  $end
$var reg       1 r    s_reg_22 $end
$var wire      1 s    dut_OrReduction_3U_1U_4_14_out1  $end
$var reg       1 t    s_reg_21 $end
$var wire      1 u    dut_And_1Ux1U_1U_4_13_out1  $end
$var reg       1 v    s_reg_20 $end
$var wire      1 w    dut_And_1Ux1U_1U_4_12_out1  $end
$var reg       1 x    s_reg_19 $end
$var wire      1 y    dut_And_1Ux1U_1U_4_11_out1  $end
$var reg       1 z    s_reg_18 $end
$var wire      1 {    dut_GreaterThan_1U_15_4_7_out1  $end
$var reg       1 |    s_reg_17 $end
$var reg       3 }    s_reg_16 [2:0] $end
$var wire      4 ~    dut_Add_4U_6_4_27_out1 [3:0] $end
$var reg       4 !!   s_reg_15_slice [3:0] $end
$var reg      16 "!   dut_N_Mux_16_2_25_4_60_out1 [15:0] $end
$var reg      16 #!   s_reg_14 [15:0] $end
$var reg      16 $!   dut_N_Mux_16_2_25_4_54_out1 [15:0] $end
$var reg      16 %!   s_reg_12 [15:0] $end
$var reg      16 &!   dut_N_Mux_16_2_25_4_55_out1 [15:0] $end
$var reg      16 '!   s_reg_11 [15:0] $end
$var reg      16 (!   dut_N_Mux_16_2_25_4_56_out1 [15:0] $end
$var reg      16 )!   s_reg_10 [15:0] $end
$var wire      1 *!   dut_And_1Ux1U_1U_4_62_out1  $end
$var wire      3 +!   dut_gen_busy_r_4_64_out1 [2:0] $end
$var wire      1 ,!   dut_Not_1U_1U_1_3_out1  $end
$var wire      1 -!   dut_LessThan_1U_17_1_41_out1  $end
$var wire      1 .!   dut_LessThan_1U_17_1_61_out1  $end
$var reg       1 /!   dout_m_req_m_trig_req $end
$var reg       1 0!   din_m_busy_req_0 $end
$var reg      16 1!   dut_N_Mux_16_2_25_4_46_out1 [15:0] $end
$var reg       3 2!   global_state [2:0] $end
$var reg       1 3!   stall0 $end
$upscope $end

$upscope $end

$upscope $end

$enddefinitions $end
$dumpvars
1!
0"
1#
0$
0%
1&
0'
bx (
1)
0*
0+
0,
1-
bx .
0/
00
01
02
13
14
15
06
17
b1 8
b0xxxx 9
bx :
bx ;
bx <
bx =
bx >
bx ?
bx @
bx A
bx B
xC
xD
b0xxxx E
xF
bx G
bx H
bx I
bx J
bx K
bx L
bx M
bx N
bx O
bx P
xQ
0R
0S
0T
b0 U
b0 V
0W
b0 X
0Y
bx Z
bx [
bx \
bx ]
bx ^
bx _
b1 `
bx a
0b
xc
xd
xe
xf
xg
xh
xi
xj
xk
xl
xm
xn
xo
xp
xq
xr
xs
xt
0u
xv
0w
xx
0y
xz
0{
x|
bx }
bx ~
bx !!
bx "!
bx #!
bx $!
bx %!
bx &!
bx '!
bx (!
bx )!
0*!
b101 +!
1,!
x-!
x.!
0/!
10!
bx 1!
b0 2!
03!
$end
#2500
0!
0)
#5000
1!
1)
b0 ]
b0 [
0v
b1 a
b0 _
0|
0z
0x
b1 #!
b0 !!
b0 }
b0 )!
b0 '!
b0 %!
b0 .
b0 P
b1 O
b0 I
b0 <
b0 J
b0 =
b0 ?
b0 H
b0 ;
b0 A
b0 @
b0 G
b1 :
b0 K
b0 >
b0 L
b0 M
b0 N
b0 \
b0 Z
b0 &!
b0 ^
b0 1!
b0 $!
b1 "!
b0 (!
b1 B
0c
0i
0k
0n
0q
0e
0g
b0 E
b1 ~
0s
0C
0D
0F
0l
0o
b1 9
b0 (
1.!
1-!
#7500
0!
0)
#10000
1!
1)
0f
0d
0j
0h
0p
0m
0t
0r
1Q
1"
1*
#12500
0!
0)
#15000
1!
1)
b1 2!
00!
13!
b10 8
03
05
b1 +!
0#
1$
0&
0-
1+
16
07
13
b10 +!
03!
#17500
0!
0)
#20000
1!
1)
b10 2!
b1 !!
10!
b11 8
15
b1 E
b10 ~
1s
06
17
b101 +!
1#
#22500
0!
0)
#25000
1!
1)
b11 2!
1W
1t
b1 8
b1 V
b1 U
b1 G
1{
0Q
#27500
0!
0)
#30000
1!
1)
b1 2!
0W
1|
b1 }
00!
13!
b10 8
b0 V
b0 U
b1 P
b0 O
0{
05
1c
16
07
1D
b10 +!
b1 ;
03!
b1 ^
0#
#32500
0!
0)
#35000
1!
1)
b10 2!
1d
b10 !!
10!
b11 8
15
b10 E
b11 ~
06
17
b101 +!
1#
#37500
0!
0)
#40000
1!
1)
b11 2!
1W
b1 _
b1 8
b10 V
b10 U
b1 O
b10 B
1{
b10 ;
b10 ^
#42500
0!
0)
#45000
1!
1)
b1 2!
0W
b10 }
00!
13!
b10 8
b0 V
b0 U
b0 O
b1 B
0{
05
0c
1q
16
07
b1 ;
b1 ^
0D
b10 +!
03!
0#
#47500
0!
0)
#50000
1!
1)
b10 2!
0d
1r
b11 !!
10!
b11 8
b1 H
15
b11 E
b100 ~
1F
06
17
b1 <
b1 \
b101 +!
1#
#52500
0!
0)
#55000
1!
1)
b11 2!
1W
b1 ]
b1 8
b11 V
b11 U
b1 O
b10 B
1{
b10 <
b10 \
#57500
0!
0)
#60000
1!
1)
b1 2!
0W
b11 }
00!
13!
b10 8
b0 V
b0 U
b0 O
b1 B
0{
05
0q
1e
16
07
b1 <
b1 \
1l
b10 +!
03!
0#
#62500
0!
0)
#65000
1!
1)
b10 2!
1f
1m
0r
b100 !!
10!
b11 8
b1 =
b1 I
b1 Z
15
b100 E
b101 ~
0F
06
17
b101 +!
1#
#67500
0!
0)
#70000
1!
1)
b11 2!
1W
b1 [
b1 8
b100 V
b100 U
b1 O
b10 B
1{
b10 =
b10 Z
#72500
0!
0)
#75000
1!
1)
b1 2!
0W
b100 }
00!
13!
b10 8
b0 V
b0 U
b0 O
b1 B
0{
05
0e
1g
16
07
b1 =
b1 Z
1o
0l
b10 +!
03!
0#
#77500
0!
0)
#80000
1!
1)
b10 2!
0f
1h
1p
0m
b101 !!
10!
b11 8
b1 J
b1 >
b1 (!
15
b101 E
b110 ~
06
17
b101 +!
1#
#82500
0!
0)
#85000
1!
1)
b11 2!
1W
b1 )!
b1 8
b101 V
b101 U
b1 O
b10 B
1R
1{
1u
b10 >
b10 (!
#87500
0!
0)
#90000
1!
1)
b1 2!
0W
1v
b101 }
00!
13!
b10 8
b0 V
b0 U
b10 ?
b0 O
b10 &!
b1 B
0R
0{
05
1i
0g
16
0u
07
b1 >
b1 ?
b1 (!
b1 &!
0o
b10 +!
03!
0#
#92500
0!
0)
#95000
1!
1)
b10 2!
1j
0h
0p
b110 !!
10!
b11 8
b1 K
15
b110 E
b111 ~
06
17
b101 +!
1#
#97500
0!
0)
#100000
1!
1)
b11 2!
1W
b1 '!
b1 8
b110 V
b110 U
b1 O
b10 B
1S
1{
1w
b10 ?
b10 &!
#102500
0!
0)
#105000
1!
1)
b1 2!
0W
0v
1x
b110 }
00!
13!
b10 8
b0 V
b0 U
b1 ?
b10 @
b0 O
b1 &!
b10 $!
b1 B
0S
0{
05
0i
1k
16
0w
07
b1 @
b1 $!
b10 +!
03!
0#
#107500
0!
0)
#110000
1!
1)
b10 2!
0j
b111 !!
10!
b11 8
b1 L
15
b111 E
b1000 ~
06
17
b101 +!
1#
#112500
0!
0)
#115000
1!
1)
b11 2!
1W
b1 %!
b1 8
b111 V
b111 U
b1 O
b1 M
b10 B
1T
1{
1y
b10 @
b10 $!
#117500
0!
0)
#120000
1!
1)
b1 2!
0W
1z
0x
b111 }
00!
13!
b10 8
b0 V
b0 U
b10 A
b1 @
b0 O
b10 1!
b1 $!
b1 B
0T
0{
05
0k
1n
16
0y
07
b1 A
b1 1!
b10 +!
03!
0#
#122500
0!
0)
#125000
1!
1)
b10 2!
b1000 !!
10!
b11 8
15
b1000 E
b1 ~
0s
06
17
0-!
b101 +!
b100 8
1#
#127500
0!
0)
#130000
1!
1)
b100 2!
1Y
0t
b1 .
b1 8
b1 X
b0 G
b1 O
b1 N
b10 B
b10 `
1Q
b1 (
b10 A
b10 1!
1C
b10 :
b10 "!
#132500
0!
0)
#135000
1!
1)
b1 2!
0Y
b10 a
0|
0z
b0 !!
b0 }
00!
13!
b10 8
b0 X
b1 A
b1 1!
b1 `
05
0n
b0 E
0C
b10 9
16
07
b1 :
b1 "!
1-!
b10 +!
03!
0#
#137500
0!
0)
#140000
1!
1)
b10 2!
b1 !!
10!
b11 8
15
b1 E
b10 ~
1s
06
17
b101 +!
1#
#142500
0!
0)
#145000
1!
1)
b11 2!
1W
1t
b1 8
b1 V
b1 U
b1 G
1{
0Q
#147500
0!
0)
#150000
1!
1)
b1 2!
0W
1|
b1 }
00!
13!
b10 8
b0 V
b0 U
0{
05
1c
16
07
1D
b10 +!
b10 ;
03!
b10 ^
0#
#152500
0!
0)
#155000
1!
1)
b10 2!
1d
b10 !!
10!
b11 8
b0 H
15
b10 E
b11 ~
06
17
b101 +!
1#
#157500
0!
0)
#160000
1!
1)
b11 2!
1W
b10 _
b1 8
b10 V
b10 U
b10 O
b11 B
1{
b11 ;
b11 ^
#162500
0!
0)
#165000
1!
1)
b1 2!
0W
b10 }
00!
13!
b10 8
b0 V
b0 U
b10 P
b1 O
0{
05
0c
1q
16
07
0D
b10 +!
b10 ;
03!
b10 ^
0#
#167500
0!
0)
#170000
1!
1)
b10 2!
0d
1r
b11 !!
10!
b11 8
b10 H
b0 I
15
b11 E
b100 ~
1F
06
17
b11 <
b11 \
b101 +!
1#
#172500
0!
0)
#175000
1!
1)
b11 2!
1W
b11 ]
b1 8
b11 V
b11 U
b11 O
b101 B
1{
b101 <
b101 \
#177500
0!
0)
#180000
1!
1)
b1 2!
0W
b11 }
00!
13!
b10 8
b0 V
b0 U
b11 P
b1 O
b100 B
0{
05
0q
1e
16
07
b100 <
b100 \
1l
b10 +!
03!
0#
#182500
0!
0)
#185000
1!
1)
b10 2!
1f
1m
0r
b100 !!
10!
b11 8
b0 J
b0 M
b100 =
b11 I
b100 Z
15
b100 E
b101 ~
0F
06
17
b11 <
b11 \
b101 +!
1#
#187500
0!
0)
#190000
1!
1)
b11 2!
1W
b100 [
b1 8
b100 V
b100 U
b100 O
b111 B
1{
b111 =
b111 Z
#192500
0!
0)
#195000
1!
1)
b1 2!
0W
b100 }
00!
13!
b10 8
b0 V
b0 U
b100 P
b1 O
b101 B
0{
05
0e
1g
16
07
b101 =
b101 Z
1o
0l
b10 +!
03!
0#
#197500
0!
0)
#200000
1!
1)
b10 2!
0f
1h
1p
0m
b101 !!
10!
b11 8
b100 J
b0 K
b0 N
b101 >
b1 M
b100 =
b100 Z
b101 (!
15
b101 E
b110 ~
06
17
b101 +!
1#
1%
1,
#202500
0!
0)
#205000
1!
1)
b11 2!
1W
1b
0p
b101 )!
b1 8
b101 V
b101 U
b0 1!
b0 (!
b1 N
b101 O
b1 1!
b1001 B
1R
1{
1u
#207500
0!
0)
#210000
1!
1)
b1 2!
0W
1v
b101 }
00!
13!
b10 8
b0 V
b0 U
b1001 ?
b101 P
b1 O
b110 B
0R
0{
05
1i
0g
16
0u
07
b110 ?
0o
b10 +!
03!
0#
#212500
0!
0)
#215000
1!
1)
b10 2!
1j
0h
b110 !!
10!
b11 8
b0 L
b101 K
b0 &!
b101 (!
15
b110 E
b111 ~
06
17
b101 +!
1#
0%
0,
#217500
0!
0)
#220000
1!
1)
b11 2!
1W
0b
b0 '!
b1 8
b110 V
b110 U
b110 &!
b0 O
b101 B
1S
1{
1w
b101 ?
b101 &!
#222500
0!
0)
#225000
1!
1)
b1 2!
0W
0v
1x
b110 }
00!
13!
b10 8
b0 V
b0 U
b0 ?
b101 @
b0 P
b1 O
b0 &!
b101 $!
b1 B
0S
0{
05
0i
1k
16
0w
07
b1 @
b1 $!
b10 +!
03!
0#
#227500
0!
0)
#230000
1!
1)
b10 2!
0j
b111 !!
10!
b11 8
15
b111 E
b1000 ~
06
17
b101 +!
1#
#232500
0!
0)
#235000
1!
1)
b11 2!
1W
b1 8
b111 V
b111 U
1T
1{
1y
#237500
0!
0)
#240000
1!
1)
b1 2!
0W
1z
0x
b111 }
00!
13!
b10 8
b0 V
b0 U
b1 P
b10 B
0T
0{
05
0k
1n
16
0y
07
b10 A
b10 1!
b10 +!
03!
0#
#242500
0!
0)
#245000
1!
1)
b10 2!
b1000 !!
10!
b11 8
15
b1000 E
b1 ~
0s
06
17
0-!
b101 +!
b100 8
1#
#247500
0!
0)
#250000
1!
1)
b100 2!
1Y
0t
b10 .
b1 8
b10 X
b0 G
b10 O
b10 N
b11 B
b11 `
1Q
b10 (
b11 A
b11 1!
1C
b11 :
b11 "!
#252500
0!
0)
#255000
1!
1)
b1 2!
0Y
b11 a
0|
0z
b0 !!
b0 }
00!
13!
b10 8
b0 X
b10 A
b10 P
b1 O
b10 1!
b1 `
05
0n
b0 E
0C
b11 9
16
07
b1 :
b1 "!
1-!
b10 +!
03!
0#
#257500
0!
0)
#260000
1!
1)
b10 2!
b1 !!
10!
b11 8
15
b1 E
b10 ~
1s
06
17
b101 +!
1#
#262500
0!
0)
#265000
1!
1)
b11 2!
1W
1t
b1 8
b1 V
b1 U
b1 G
1{
0Q
#267500
0!
0)
#270000
1!
1)
b1 2!
0W
1|
b1 }
00!
13!
b10 8
b0 V
b0 U
b1 P
b10 O
0{
05
1c
16
07
1D
b10 +!
b11 ;
03!
b11 ^
0#
#272500
0!
0)
#275000
1!
1)
b10 2!
1d
b10 !!
10!
b11 8
b0 H
15
b10 E
b11 ~
06
17
b101 +!
1#
#277500
0!
0)
#280000
1!
1)
b11 2!
1W
b11 _
b1 8
b10 V
b10 U
b11 O
b100 B
1{
b100 ;
b100 ^
#282500
0!
0)
#285000
1!
1)
b1 2!
0W
b10 }
00!
13!
b10 8
b0 V
b0 U
b11 P
b110 B
0{
05
0c
1q
16
07
b110 ;
b110 ^
0D
b10 +!
b11 ;
03!
b11 ^
0#
#287500
0!
0)
#290000
1!
1)
b10 2!
0d
1r
b11 !!
10!
b11 8
b11 H
b0 I
15
b11 E
b100 ~
1F
06
17
b110 <
b110 \
b101 +!
1#
#292500
0!
0)
#295000
1!
1)
b11 2!
1W
b110 ]
b1 8
b11 V
b11 U
b110 O
b1001 B
1{
b1001 <
b1001 \
#297500
0!
0)
#300000
1!
1)
b1 2!
0W
b11 }
00!
13!
b10 8
b0 V
b0 U
b110 P
b100 O
b1010 B
0{
05
0q
1e
16
07
b1010 <
b1010 \
1l
b10 +!
03!
0#
#302500
0!
0)
#305000
1!
1)
b10 2!
1f
1m
0r
b100 !!
10!
b11 8
b0 J
b0 M
b1010 =
b110 I
b1010 Z
15
b100 E
b101 ~
0F
06
17
b110 <
b110 \
b101 +!
1#
#307500
0!
0)
#310000
1!
1)
b11 2!
1W
b1010 [
b1 8
b100 V
b100 U
b1010 O
b10000 B
1{
b10000 =
b10000 Z
#312500
0!
0)
#315000
1!
1)
b1 2!
0W
b100 }
00!
13!
b10 8
b0 V
b0 U
b1010 P
b101 O
b1111 B
0{
05
0e
1g
16
07
b1111 =
b1111 Z
1o
0l
b10 +!
03!
0#
#317500
0!
0)
#320000
1!
1)
b10 2!
0f
1h
1p
0m
b101 !!
10!
b11 8
b1010 J
b0 K
b0 N
b1111 >
b1 M
b1010 =
b1010 Z
b1111 (!
15
b101 E
b110 ~
06
17
b101 +!
1#
#322500
0!
0)
#325000
1!
1)
b11 2!
1W
b1111 )!
b1 8
b101 V
b101 U
b1111 O
b11001 B
1R
1{
1u
b11001 >
b11001 (!
#327500
0!
0)
#330000
1!
1)
b1 2!
0W
1v
b101 }
00!
13!
b10 8
b0 V
b0 U
b11001 ?
b1111 P
b0 O
b11001 &!
b1111 B
0R
0{
05
1i
0g
16
0u
07
b1111 >
b1111 ?
b1111 (!
b1111 &!
0o
b10 +!
03!
0#
#332500
0!
0)
#335000
1!
1)
b10 2!
1j
0h
0p
b110 !!
10!
b11 8
b1111 K
b10 N
15
b110 E
b111 ~
06
17
b101 +!
1#
#337500
0!
0)
#340000
1!
1)
b11 2!
1W
b1111 '!
b1 8
b110 V
b110 U
b1111 O
b11110 B
1S
1{
1w
b11110 ?
b11110 &!
#342500
0!
0)
#345000
1!
1)
b1 2!
0W
0v
1x
b110 }
00!
13!
b10 8
b0 V
b0 U
b1111 ?
b11110 @
b1 O
b1111 &!
b11110 $!
b10000 B
0S
0{
05
0i
1k
16
0w
07
b10000 @
b10000 $!
b10 +!
03!
0#
#347500
0!
0)
#350000
1!
1)
b10 2!
0j
b111 !!
10!
b11 8
b1111 L
15
b111 E
b1000 ~
06
17
b101 +!
1#
#352500
0!
0)
#355000
1!
1)
b11 2!
1W
b10000 %!
b1 8
b111 V
b111 U
b10000 O
b10000 M
b11111 B
1T
1{
1y
b11111 @
b11111 $!
#357500
0!
0)
#360000
1!
1)
b1 2!
0W
1z
0x
b111 }
00!
13!
b10 8
b0 V
b0 U
b11111 A
b10000 @
b10000 P
b10 O
b11111 1!
b10000 $!
b10010 B
0T
0{
05
0k
1n
16
0y
07
b10010 A
b10010 1!
b10 +!
03!
0#
#362500
0!
0)
#365000
1!
1)
b10 2!
b1000 !!
10!
b11 8
15
b1000 E
b1 ~
0s
06
17
0-!
b101 +!
b100 8
1#
#367500
0!
0)
#370000
1!
1)
b100 2!
1Y
0t
b10010 .
b1 8
b11 X
b0 G
b10010 O
b10010 N
b100010 B
b100 `
1Q
b10010 (
b100010 A
b100010 1!
1C
b100010 :
b100010 "!
#372500
0!
0)
#375000
1!
1)
b1 2!
0Y
b100 a
0|
0z
b0 !!
b0 }
00!
13!
b10 8
b0 X
b10010 A
b10010 P
b1 O
b10010 1!
b10011 B
b1 `
05
0n
b0 E
0C
b100 9
16
07
b1 :
b1 "!
1-!
b10 +!
03!
0#
#377500
0!
0)
#380000
1!
1)
b10 2!
b1 !!
10!
b11 8
15
b1 E
b10 ~
1s
06
17
b101 +!
1#
#382500
0!
0)
#385000
1!
1)
b11 2!
1W
1t
b1 8
b1 V
b1 U
b1 G
1{
0Q
#387500
0!
0)
#390000
1!
1)
b1 2!
0W
1|
b1 }
00!
13!
b10 8
b0 V
b0 U
b1 P
b11 O
b100 B
0{
05
1c
16
07
1D
b10 +!
b100 ;
03!
b100 ^
0#
#392500
0!
0)
#395000
1!
1)
b10 2!
1d
b10 !!
10!
b11 8
b0 H
15
b10 E
b11 ~
06
17
b101 +!
1#
#397500
0!
0)
#400000
1!
1)
b11 2!
1W
b100 _
b1 8
b10 V
b10 U
b100 O
b101 B
1{
b101 ;
b101 ^
#402500
0!
0)
#405000
1!
1)
b1 2!
0W
b10 }
00!
13!
b10 8
b0 V
b0 U
b100 P
b110 O
b1010 B
0{
05
0c
1q
16
07
b1010 ;
b1010 ^
0D
b10 +!
b100 ;
03!
b100 ^
0#
#407500
0!
0)
#410000
1!
1)
b10 2!
0d
1r
b11 !!
10!
b11 8
b100 H
b0 I
15
b11 E
b100 ~
1F
06
17
b1010 <
b1010 \
b101 +!
1#
#412500
0!
0)
#415000
1!
1)
b11 2!
1W
b1010 ]
b1 8
b11 V
b11 U
b1010 O
b1110 B
1{
b1110 <
b1110 \
#417500
0!
0)
#420000
1!
1)
b1 2!
0W
b11 }
00!
13!
b10 8
b0 V
b0 U
b1010 P
b10100 B
0{
05
0q
1e
16
07
b10100 <
b10100 \
1l
b10 +!
03!
0#
#422500
0!
0)
#425000
1!
1)
b10 2!
1f
1m
0r
b100 !!
10!
b11 8
b0 J
b0 M
b10100 =
b1010 I
b10100 Z
15
b100 E
b101 ~
0F
06
17
b1010 <
b1010 \
b101 +!
1#
#427500
0!
0)
#430000
1!
1)
b11 2!
1W
b10100 [
b1 8
b100 V
b100 U
b10100 O
b11110 B
1{
b11110 =
b11110 Z
#432500
0!
0)
#435000
1!
1)
b1 2!
0W
b100 }
00!
13!
b10 8
b0 V
b0 U
b10100 P
b1111 O
b100011 B
0{
05
0e
1g
16
07
b100011 =
b100011 Z
1o
0l
b10 +!
03!
0#
#437500
0!
0)
#440000
1!
1)
b10 2!
0f
1h
1p
0m
b101 !!
10!
b11 8
b10100 J
b0 K
b0 N
b100011 >
b10000 M
b10100 =
b10100 Z
b100011 (!
15
b101 E
b110 ~
06
17
b101 +!
1#
#442500
0!
0)
#445000
1!
1)
b11 2!
1W
b100011 )!
b1 8
b101 V
b101 U
b100011 O
b110111 B
1R
1{
1u
b110111 >
b110111 (!
#447500
0!
0)
#450000
1!
1)
b1 2!
0W
1v
b101 }
00!
13!
b10 8
b0 V
b0 U
b110111 ?
b100011 P
b1111 O
b110111 &!
b110010 B
0R
0{
05
1i
0g
16
0u
07
b110010 >
b110010 ?
b110010 (!
b110010 &!
0o
b10 +!
03!
0#
#452500
0!
0)
#455000
1!
1)
b10 2!
1j
0h
0p
b110 !!
10!
b11 8
b0 L
b100011 K
b10010 N
b100011 >
b100011 (!
15
b110 E
b111 ~
06
17
b101 +!
1#
#457500
0!
0)
#460000
1!
1)
b11 2!
1W
b110010 '!
b1 8
b110 V
b110 U
b110010 O
b1010101 B
1S
1{
1w
b1010101 ?
b1010101 &!
#462500
0!
0)
#465000
1!
1)
b1 2!
0W
0v
1x
b110 }
00!
13!
b10 8
b0 V
b0 U
b110010 ?
b1010101 @
b110010 P
b10000 O
b110010 &!
b1010101 $!
b1000010 B
0S
0{
05
0i
1k
16
0w
07
b1000010 @
b1000010 $!
b10 +!
03!
0#
#467500
0!
0)
#470000
1!
1)
b10 2!
0j
b111 !!
10!
b11 8
b110010 L
15
b111 E
b1000 ~
06
17
b101 +!
1#
#472500
0!
0)
#475000
1!
1)
b11 2!
1W
b1000010 %!
b1 8
b111 V
b111 U
b1000010 O
b1000010 M
b1110100 B
1T
1{
1y
b1110100 @
b1110100 $!
#477500
0!
0)
#480000
1!
1)
b1 2!
0W
1z
0x
b111 }
00!
13!
b10 8
b0 V
b0 U
b1110100 A
b1000010 @
b1000010 P
b10010 O
b1110100 1!
b1000010 $!
b1010100 B
0T
0{
05
0k
1n
16
0y
07
b1010100 A
b1010100 1!
b10 +!
03!
0#
#482500
0!
0)
#485000
1!
1)
b10 2!
b1000 !!
10!
b11 8
15
b1000 E
b1 ~
0s
06
17
0-!
b101 +!
b100 8
1#
#487500
0!
0)
#490000
1!
1)
b100 2!
1Y
0t
b1010100 .
b1 8
b100 X
b0 G
b1010100 O
b1010100 N
b10010110 B
b101 `
1Q
b1010100 (
b10010110 A
b10010110 1!
1C
b10010110 :
b10010110 "!
#492500
0!
0)
#495000
1!
1)
b1 2!
0Y
b101 a
0|
0z
b0 !!
b0 }
00!
13!
b10 8
b0 X
b1010100 A
b1010100 P
b1 O
b1010100 1!
b1010101 B
b1 `
05
0n
b0 E
0C
b101 9
16
07
b1 :
b1 "!
1-!
b10 +!
03!
0#
#497500
0!
0)
#500000
1!
1)
b10 2!
b1 !!
10!
b11 8
15
b1 E
b10 ~
1s
06
17
b101 +!
1#
#502500
0!
0)
#505000
1!
1)
b11 2!
1W
1t
b1 8
b1 V
b1 U
b1 G
1{
0Q
#507500
0!
0)
#510000
1!
1)
b1 2!
0W
1|
b1 }
00!
13!
b10 8
b0 V
b0 U
b1 P
b100 O
b101 B
0{
05
1c
16
07
1D
b10 +!
b101 ;
03!
b101 ^
0#
#512500
0!
0)
#515000
1!
1)
b10 2!
1d
b10 !!
10!
b11 8
b0 H
15
b10 E
b11 ~
06
17
b101 +!
1#
#517500
0!
0)
#520000
1!
1)
b11 2!
1W
b101 _
b1 8
b10 V
b10 U
b101 O
b110 B
1{
b110 ;
b110 ^
#522500
0!
0)
#525000
1!
1)
b1 2!
0W
b10 }
00!
13!
b10 8
b0 V
b0 U
b101 P
b1010 O
b1111 B
0{
05
0c
1q
16
07
b1111 ;
b1111 ^
0D
b10 +!
b101 ;
03!
b101 ^
0#
#527500
0!
0)
#530000
1!
1)
b10 2!
0d
1r
b11 !!
10!
b11 8
b101 H
b0 I
15
b11 E
b100 ~
1F
06
17
b1111 <
b1111 \
b101 +!
1#
#532500
0!
0)
#535000
1!
1)
b11 2!
1W
b1111 ]
b1 8
b11 V
b11 U
b1111 O
b10100 B
1{
b10100 <
b10100 \
#537500
0!
0)
#540000
1!
1)
b1 2!
0W
b11 }
00!
13!
b10 8
b0 V
b0 U
b1111 P
b10100 O
b100011 B
0{
05
0q
1e
16
07
b100011 <
b100011 \
1l
b10 +!
03!
0#
#542500
0!
0)
#545000
1!
1)
b10 2!
1f
1m
0r
b100 !!
10!
b11 8
b0 J
b0 M
b100011 =
b1111 I
b100011 Z
15
b100 E
b101 ~
0F
06
17
b1111 <
b1111 \
b101 +!
1#
#547500
0!
0)
#550000
1!
1)
b11 2!
1W
b100011 [
b1 8
b100 V
b100 U
b100011 O
b110010 B
1{
b110010 =
b110010 Z
#552500
0!
0)
