bdw_work/sims/NODPO_V/verilog.vcd
$date
    May 26, 2023  15:12:01
$end
$version
    TOOL:	xmsim(64)	22.03-s003
$end
$timescale
    1 ps
$end

$scope module top $end

$scope module dut0 $end
$var reg       1 !    clk $end
$var reg       1 "    rst $end
$var wire      1 #    din_busy  $end
$var reg       1 $    din_vld $end
$var reg       1 %    din_data $end
$var reg       1 &    dout_busy $end
$var wire      1 '    dout_vld  $end
$var wire     16 (    dout_data [15:0] $end

$scope module dut0 $end
$var wire      1 )    clk  $end
$var wire      1 *    rst  $end
$var wire      1 +    din_vld  $end
$var wire      1 ,    din_data  $end
$var wire      1 -    dout_busy  $end
$var wire      1 #    din_busy  $end
$var wire      1 '    dout_vld  $end
$var reg      16 .    dout_data [15:0] $end
$var reg       1 /    dout_m_req_m_prev_trig_req $end
$var reg       1 0    dout_m_unacked_req $end
$var wire      1 1    dut_Xor_1Ux1U_1U_1_1_out1  $end
$var wire      1 2    dut_Or_1Ux1U_1U_4_2_out1  $end
$var reg       1 3    dut_N_Muxb_1_2_16_4_4_out1 $end
$var reg       1 4    din_m_unvalidated_req $end
$var wire      1 5    dut_gen_busy_r_4_64_gnew_req  $end
$var wire      1 6    dut_gen_busy_r_4_64_gdiv  $end
$var wire      1 7    dut_gen_busy_r_4_64_din_gen_busy_din_m_data_is_invalid_next  $end
$var reg       3 8    global_state_next [2:0] $end
$var reg      16 9    dut_N_Mux_16_2_26_4_53_out1 [15:0] $end
$var reg      16 :    dut_N_Mux_16_2_24_4_52_out1 [15:0] $end
$var reg      16 ;    dut_N_Mux_16_2_24_4_51_out1 [15:0] $end
$var reg      16 <    dut_N_Mux_16_2_24_4_50_out1 [15:0] $end
$var reg      16 =    dut_N_Mux_16_2_24_4_49_out1 [15:0] $end
$var reg      16 >    dut_N_Mux_16_2_24_4_48_out1 [15:0] $end
$var reg      16 ?    dut_N_Mux_16_2_24_4_47_out1 [15:0] $end
$var reg      16 @    dut_N_Mux_16_2_24_4_46_out1 [15:0] $end
$var wire      5 A    dut_LessThan_1U_17_1_45_in1 [4:0] $end
$var wire      5 B    dut_LessThan_1U_17_1_44_in1 [4:0] $end
$var reg      16 C    dut_N_Mux_16_2_25_4_43_out1 [15:0] $end
$var reg      16 D    dut_N_Mux_16_2_25_4_42_out1 [15:0] $end
$var reg      16 E    dut_N_Mux_16_2_25_4_41_out1 [15:0] $end
$var reg      16 F    dut_N_Mux_16_2_25_4_40_out1 [15:0] $end
$var reg      16 G    dut_N_Mux_16_2_25_4_39_out1 [15:0] $end
$var reg      16 H    dut_N_Mux_16_2_25_4_38_out1 [15:0] $end
$var reg      16 I    dut_N_Mux_16_2_25_4_37_out1 [15:0] $end
$var reg      16 J    dut_N_Mux_16_2_25_4_36_out1 [15:0] $end
$var wire     16 K    dut_Add_16Ux16U_16U_4_35_out1 [15:0] $end
$var wire      1 L    dut_And_1Ux1U_1U_4_34_out1  $end
$var wire      1 M    dut_And_1Ux1U_1U_4_33_out1  $end
$var wire      1 N    dut_And_1Ux1U_1U_4_32_out1  $end
$var wire      1 O    dut_And_1Ux1U_1U_4_31_out1  $end
$var reg      16 P    dut_N_Mux_16_8_23_4_30_out1 [15:0] $end
$var reg      16 Q    dut_N_Mux_16_8_22_4_29_out1 [15:0] $end
$var wire      1 R    dut_Not_1U_1U_4_28_out1  $end
$var wire      1 S    dut_Equal_1U_5_4_27_out1  $end
$var wire      1 T    dut_Equal_1U_8_4_26_out1  $end
$var wire      1 U    dut_Equal_1U_10_4_25_out1  $end
$var reg       4 V    dut_GreaterThan_1U_15_4_8_in1_slice [3:0] $end
$var reg       3 W    dut_OrReduction_3U_1U_4_7_in1 [2:0] $end
$var reg       1 X    gs_ctrl_thread1_h4 $end
$var reg       3 Y    dut_Add_4U_6_4_6_in1 [2:0] $end
$var reg       1 Z    gs_ctrl_thread1_h8 $end
$var reg      16 [    dut_N_Mux_16_2_25_4_58_out1 [15:0] $end
$var reg      16 \    s_reg_9 [15:0] $end
$var reg      16 ]    dut_N_Mux_16_2_25_4_59_out1 [15:0] $end
$var reg      16 ^    s_reg_8 [15:0] $end
$var reg      16 _    dut_N_Mux_16_2_25_4_60_out1 [15:0] $end
$var reg      16 `    s_reg_7 [15:0] $end
$var wire      4 a    dut_Add_4U_6_4_6_out1 [3:0] $end
$var reg       4 b    s_reg_6_slice [3:0] $end
$var wire      4 c    dut_Add_4U_6_4_24_out1 [3:0] $end
$var wire      1 d    dut_Equal_1U_5_4_23_out1  $end
$var reg       1 e    s_reg_28 $end
$var wire      1 f    dut_Equal_1U_8_4_22_out1  $end
$var reg       1 g    s_reg_27 $end
$var wire      1 h    dut_Equal_1U_10_4_21_out1  $end
$var reg       1 i    s_reg_26 $end
$var wire      1 j    dut_And_1Ux1U_1U_4_20_out1  $end
$var reg       1 k    s_reg_25 $end
$var wire      1 l    dut_Equal_1U_11_4_19_out1  $end
$var reg       1 m    s_reg_24 $end
$var wire      1 n    dut_And_1Ux1U_1U_4_18_out1  $end
$var reg       1 o    s_reg_23 $end
$var wire      1 p    dut_Equal_1U_12_4_11_out1  $end
$var reg       1 q    s_reg_22 $end
$var wire      1 r    dut_And_1Ux1U_1U_4_16_out1  $end
$var reg       1 s    s_reg_21 $end
$var wire      1 t    dut_Equal_1U_13_4_15_out1  $end
$var reg       1 u    s_reg_20 $end
$var wire      1 v    dut_And_1Ux1U_1U_4_14_out1  $end
$var reg       1 w    s_reg_19 $end
$var wire      1 x    dut_Equal_1U_14_4_13_out1  $end
$var reg       1 y    s_reg_18 $end
$var wire      1 z    dut_GreaterThan_1U_15_4_8_out1  $end
$var reg       1 {    s_reg_17 $end
$var wire      1 |    dut_OrReduction_3U_1U_4_7_out1  $end
$var reg       1 }    s_reg_16 $end
$var reg       4 ~    s_reg_29_slice [3:0] $end
$var reg       3 !!   s_reg_15 [2:0] $end
$var reg      16 "!   dut_N_Mux_16_2_25_4_61_out1 [15:0] $end
$var reg      16 #!   s_reg_14 [15:0] $end
$var reg      16 $!   dut_N_Mux_16_2_25_4_55_out1 [15:0] $end
$var reg      16 %!   s_reg_12 [15:0] $end
$var reg      16 &!   dut_N_Mux_16_2_25_4_56_out1 [15:0] $end
$var reg      16 '!   s_reg_11 [15:0] $end
$var reg      16 (!   dut_N_Mux_16_2_25_4_57_out1 [15:0] $end
$var reg      16 )!   s_reg_10 [15:0] $end
$var wire      1 *!   dut_And_1Ux1U_1U_4_62_out1  $end
$var wire      3 +!   dut_gen_busy_r_4_64_out1 [2:0] $end
$var wire      1 ,!   dut_Not_1U_1U_1_3_out1  $end
$var wire      1 -!   dut_LessThan_1U_17_1_44_out1  $end
$var wire      1 .!   dut_LessThan_1U_17_1_45_out1  $end
$var reg       1 /!   dout_m_req_m_trig_req $end
$var reg       1 0!   din_m_busy_req_0 $end
$var reg      16 1!   dut_N_Mux_16_2_25_4_54_out1 [15:0] $end
$var reg       3 2!   global_state [2:0] $end
$var reg       1 3!   stall0 $end
$upscope $end

$upscope $end

$upscope $end

$enddefinitions $end
$dumpvars
1!
0"
1#
0$
0%
1&
0'
bx (
1)
0*
0+
0,
1-
bx .
0/
00
01
02
13
14
15
06
17
b1 8
bx 9
bx :
bx ;
bx <
bx =
bx >
bx ?
bx @
b0xxxx A
b0xxxx B
bx C
bx D
bx E
bx F
bx G
bx H
bx I
bx J
bx K
xL
xM
xN
xO
bx P
bx Q
xR
xS
xT
xU
b0 V
b0 W
0X
b0 Y
0Z
bx [
bx \
bx ]
bx ^
bx _
bx `
b1 a
bx b
b1 c
0d
xe
0f
xg
0h
xi
0j
xk
0l
xm
0n
xo
0p
xq
0r
xs
0t
xu
0v
xw
0x
xy
0z
x{
0|
x}
bx ~
bx !!
bx "!
bx #!
bx $!
bx %!
bx &!
bx '!
bx (!
bx )!
0*!
b101 +!
1,!
x-!
x.!
0/!
10!
bx 1!
b0 2!
03!
$end
#2500
0!
0)
#5000
1!
1)
b0 ^
b0 \
b1 ~
b1 b
b0 `
0i
0g
0e
0o
0m
0k
0u
0s
0q
0{
0y
0w
b1 #!
b0 !!
0}
b0 )!
b0 '!
b0 %!
b0 .
b0 Q
b1 P
b0 E
b0 ;
b0 F
b0 <
b0 D
b0 :
b0 H
b0 =
b0 G
b0 ?
b0 I
b0 >
b0 @
b0 J
b1 C
b0 9
b0 ]
b0 [
b0 _
b0 &!
b0 (!
b0 $!
b0 1!
b1 "!
b1 K
1R
0S
0T
0U
0L
0M
0N
0O
b1 A
b1 B
b0 (
1-!
1.!
#7500
0!
0)
#10000
1!
1)
1"
1*
#12500
0!
0)
#15000
1!
1)
b1 2!
00!
13!
b10 8
03
05
b1 +!
0#
1$
0&
0-
1+
16
07
13
b10 +!
03!
#17500
0!
0)
#20000
1!
1)
b10 2!
1X
10!
b1 8
b1 W
b1 V
1z
b10 c
1d
1|
15
06
17
b101 +!
1#
#22500
0!
0)
#25000
1!
1)
b1 2!
0X
b10 ~
1e
1{
b1 !!
1}
00!
13!
b10 8
b0 W
b0 V
b1 Q
b0 P
b1 9
0z
b1 c
0d
0|
05
0R
1S
1L
b10 B
16
07
1M
0L
b10 +!
b1 D
03!
b1 _
0#
#27500
0!
0)
#30000
1!
1)
b10 2!
1X
b1 `
10!
b1 8
b10 W
b10 V
b1 P
b10 K
1z
b11 c
1f
1|
15
06
17
b10 D
b10 _
b101 +!
1#
#32500
0!
0)
#35000
1!
1)
b1 2!
0X
b11 ~
1g
0e
b10 !!
00!
13!
b10 8
b0 W
b0 V
b1 :
b0 P
b1 K
0z
b1 c
0f
0|
05
0S
1T
b11 B
16
07
b1 D
b1 _
1N
0M
b10 +!
b1 E
03!
b1 ]
0#
#37500
0!
0)
#40000
1!
1)
b10 2!
1X
b1 ^
10!
b1 8
b11 W
b11 V
b1 P
b10 K
1z
b100 c
1h
1|
15
06
17
b10 E
b10 ]
b101 +!
1#
#42500
0!
0)
#45000
1!
1)
b1 2!
0X
b100 ~
1i
0g
b11 !!
00!
13!
b10 8
b0 W
b0 V
b1 ;
b0 P
b1 K
0z
b1 c
0h
0|
05
0T
1U
b100 B
16
07
b1 E
b1 ]
1O
0N
b10 +!
b1 F
03!
b1 [
0#
#47500
0!
0)
#50000
1!
1)
b10 2!
1X
b1 \
10!
b1 8
b100 W
b100 V
b1 P
b10 K
1z
b101 c
1l
1|
15
06
1j
17
b10 F
b10 [
b101 +!
1#
#52500
0!
0)
#55000
1!
1)
b1 2!
0X
b101 ~
0i
1m
1k
b100 !!
00!
13!
b10 8
b0 W
b0 V
b1 <
b10 G
b0 P
b10 (!
b1 K
0z
b1 c
0l
0|
05
0U
b101 B
16
0j
07
b1 F
b1 G
b1 [
b1 (!
0O
b10 +!
03!
0#
#57500
0!
0)
#60000
1!
1)
b10 2!
1X
b1 )!
10!
b1 8
b101 W
b101 V
b1 P
b10 K
1z
b110 c
1p
1|
15
06
1n
17
b10 G
b10 (!
b101 +!
1#
#62500
0!
0)
#65000
1!
1)
b1 2!
0X
b110 ~
1o
0m
0k
1q
b101 !!
00!
13!
b10 8
b0 W
b0 V
b10 H
b1 =
b1 G
b0 P
b10 &!
b1 (!
b1 K
0z
b1 c
0p
0|
05
b110 B
16
0n
07
b1 H
b1 &!
b10 +!
03!
0#
#67500
0!
0)
#70000
1!
1)
b10 2!
1X
b1 '!
10!
b1 8
b110 W
b110 V
b1 P
b10 K
1z
b111 c
1t
1|
15
06
1r
17
b10 H
b10 &!
b101 +!
1#
#72500
0!
0)
#75000
1!
1)
b1 2!
0X
b111 ~
0o
1u
1s
0q
b110 !!
00!
13!
b10 8
b0 W
b0 V
b1 H
b10 I
b1 >
b0 P
b1 &!
b10 $!
b1 K
0z
b1 c
0t
0|
05
b111 B
16
0r
07
b1 I
b1 $!
b10 +!
03!
0#
#77500
0!
0)
#80000
1!
1)
b10 2!
1X
b1 %!
10!
b1 8
b111 W
b111 V
b1 P
b10 K
1z
b1000 c
1x
1|
15
06
1v
17
b10 I
b10 $!
b101 +!
1#
#82500
0!
0)
#85000
1!
1)
b1 2!
0X
b1000 ~
0u
0s
1y
1w
b111 !!
00!
13!
b10 8
b0 W
b0 V
b1 ?
b1 I
b10 J
b0 P
b1 $!
b10 1!
b1 K
0z
b1 c
0x
0|
05
b1000 B
16
0v
07
b1 J
b1 1!
0-!
b10 +!
b11 8
03!
0#
#87500
0!
0)
#90000
1!
1)
b11 2!
1Z
b1 .
10!
b1 8
b1 Y
b1 P
b10 K
b10 a
15
b1 (
06
17
b10 J
b10 1!
b101 +!
1#
#92500
0!
0)
#95000
1!
1)
b1 2!
0Z
b1 ~
b10 b
0{
0y
0w
b0 !!
0}
00!
13!
b11 8
b0 Y
b1 @
b1 J
b0 9
b1 1!
b1 a
05
1R
b10 A
b1 B
16
07
1-!
b10 +!
b10 8
03!
0#
#97500
0!
0)
#100000
1!
1)
b10 2!
1X
10!
b1 8
b1 W
b1 V
1z
b10 c
1d
1|
15
06
17
b101 +!
1#
#102500
0!
0)
#105000
1!
1)
b1 2!
0X
b10 ~
1e
1{
b1 !!
1}
00!
13!
b10 8
b0 W
b0 V
b0 :
b1 9
0z
b1 c
0d
0|
05
0R
1S
1L
b10 B
16
07
b10 C
b10 "!
1M
0L
b10 +!
b10 D
b1 C
03!
b10 _
b1 "!
0#
#107500
0!
0)
#110000
1!
1)
b10 2!
1X
b10 `
10!
b1 8
b10 W
b10 V
b10 P
b11 K
1z
b11 c
1f
1|
15
06
17
b11 D
b11 _
b101 +!
1#
#112500
0!
0)
#115000
1!
1)
b1 2!
0X
b11 ~
1g
0e
b10 !!
00!
13!
b10 8
b0 W
b0 V
b0 ;
b10 :
b10 Q
b1 P
0z
b1 c
0f
0|
05
0S
1T
b11 B
16
07
1N
0M
b10 +!
b11 E
b10 D
03!
b11 ]
b10 _
0#
#117500
0!
0)
#120000
1!
1)
b10 2!
1X
b11 ^
10!
b1 8
b11 W
b11 V
b11 P
b101 K
1z
b100 c
1h
1|
15
06
17
b101 E
b101 ]
b101 +!
1#
#122500
0!
0)
#125000
1!
1)
b1 2!
0X
b100 ~
1i
0g
b11 !!
00!
13!
b10 8
b0 W
b0 V
b0 <
b11 ;
b11 Q
b1 P
b100 K
0z
b1 c
0h
0|
05
0T
1U
b100 B
16
07
b100 E
b100 ]
1O
0N
b10 +!
b100 F
b11 E
03!
b100 [
b11 ]
0#
#127500
0!
0)
#130000
1!
1)
b10 2!
1X
b100 \
10!
b1 8
b100 W
b100 V
b100 P
b111 K
1z
b101 c
1l
1|
15
06
1j
17
b111 F
b111 [
b101 +!
1#
#132500
0!
0)
#135000
1!
1)
b1 2!
0X
b101 ~
0i
1m
1k
b100 !!
00!
13!
b10 8
b0 W
b0 V
b100 <
b0 =
b111 G
b100 Q
b1 P
b111 (!
b101 K
0z
b1 c
0l
0|
05
0U
b101 B
16
0j
07
b101 F
b101 G
b101 [
b101 (!
0O
b10 +!
b100 F
03!
b100 [
0#
#137500
0!
0)
#140000
1!
1)
b10 2!
1X
b101 )!
10!
b1 8
b101 W
b101 V
b101 P
b1001 K
1z
b110 c
1p
1|
15
06
1n
17
b1001 G
b1001 (!
b101 +!
1#
1%
1,
b0 (!
#142500
0!
0)
#145000
1!
1)
b1 2!
0X
b110 ~
1o
0m
0k
1q
b101 !!
00!
13!
b10 8
b0 W
b0 V
b1001 H
b101 =
b101 G
b0 >
b101 Q
b1 P
b0 &!
b101 (!
b110 K
0z
b1 c
0p
0|
05
b110 B
16
0n
07
b110 H
b10 +!
03!
0#
#147500
0!
0)
#150000
1!
1)
b10 2!
1X
b0 '!
10!
b1 8
b110 W
b110 V
b0 P
b101 K
1z
b111 c
1t
1|
15
06
1r
17
b101 H
b101 +!
1#
0%
0,
b101 &!
#152500
0!
0)
#155000
1!
1)
b1 2!
0X
b111 ~
0o
1u
1s
0q
b110 !!
00!
13!
b10 8
b0 W
b0 V
b0 H
b0 ?
b101 I
b0 Q
b1 P
b0 &!
b101 $!
b1 K
0z
b1 c
0t
0|
05
b111 B
16
0r
07
b1 I
b1 $!
b10 +!
03!
0#
#157500
0!
0)
#160000
1!
1)
b10 2!
1X
10!
b1 8
b111 W
b111 V
1z
b1000 c
1x
1|
15
06
1v
17
b101 +!
1#
#162500
0!
0)
#165000
1!
1)
b1 2!
0X
b1000 ~
0u
0s
1y
1w
b111 !!
00!
13!
b10 8
b0 W
b0 V
b1 ?
b0 @
b1 Q
b10 K
0z
b1 c
0x
0|
05
b1000 B
16
0v
07
b10 J
b10 1!
0-!
b10 +!
b11 8
03!
0#
#167500
0!
0)
#170000
1!
1)
b11 2!
1Z
b10 .
10!
b1 8
b10 Y
b10 P
b11 K
b11 a
15
b10 (
06
17
b11 J
b11 1!
b101 +!
1#
#172500
0!
0)
#175000
1!
1)
b1 2!
0Z
b1 ~
b11 b
0{
0y
0w
b0 !!
0}
00!
13!
b11 8
b0 Y
b10 @
b10 J
b10 Q
b1 P
b0 9
b10 1!
b1 a
05
1R
b11 A
b1 B
16
07
1-!
b10 +!
b10 8
03!
0#
#177500
0!
0)
#180000
1!
1)
b10 2!
1X
10!
b1 8
b1 W
b1 V
1z
b10 c
1d
1|
15
06
17
b101 +!
1#
#182500
0!
0)
#185000
1!
1)
b1 2!
0X
b10 ~
1e
1{
b1 !!
1}
00!
13!
b10 8
b0 W
b0 V
b0 :
b1 Q
b10 P
b1 9
0z
b1 c
0d
0|
05
0R
1S
1L
b10 B
16
07
b11 C
b11 "!
1M
0L
b10 +!
b11 D
b1 C
03!
b11 _
b1 "!
0#
#187500
0!
0)
#190000
1!
1)
b10 2!
1X
b11 `
10!
b1 8
b10 W
b10 V
b11 P
b100 K
1z
b11 c
1f
1|
15
06
17
b100 D
b100 _
b101 +!
1#
#192500
0!
0)
#195000
1!
1)
b1 2!
0X
b11 ~
1g
0e
b10 !!
00!
13!
b10 8
b0 W
b0 V
b0 ;
b11 :
b11 Q
b110 K
0z
b1 c
0f
0|
05
0S
1T
b11 B
16
07
b110 D
b110 _
1N
0M
b10 +!
b110 E
b11 D
03!
b110 ]
b11 _
0#
#197500
0!
0)
#200000
1!
1)
b10 2!
1X
b110 ^
10!
b1 8
b11 W
b11 V
b110 P
b1001 K
1z
b100 c
1h
1|
15
06
17
b1001 E
b1001 ]
b101 +!
1#
#202500
0!
0)
#205000
1!
1)
b1 2!
0X
b100 ~
1i
0g
b11 !!
00!
13!
b10 8
b0 W
b0 V
b0 <
b110 ;
b110 Q
b100 P
b1010 K
0z
b1 c
0h
0|
05
0T
1U
b100 B
16
07
b1010 E
b1010 ]
1O
0N
b10 +!
b1010 F
b110 E
03!
b1010 [
b110 ]
0#
#207500
0!
0)
#210000
1!
1)
b10 2!
1X
b1010 \
10!
b1 8
b100 W
b100 V
b1010 P
b10000 K
1z
b101 c
1l
1|
15
06
1j
17
b10000 F
b10000 [
b101 +!
1#
#212500
0!
0)
#215000
1!
1)
b1 2!
0X
b101 ~
0i
1m
1k
b100 !!
00!
13!
b10 8
b0 W
b0 V
b1010 <
b0 =
b10000 G
b1010 Q
b101 P
b10000 (!
b1111 K
0z
b1 c
0l
0|
05
0U
b101 B
16
0j
07
b1111 F
b1111 G
b1111 [
b1111 (!
0O
b10 +!
b1010 F
03!
b1010 [
0#
#217500
0!
0)
#220000
1!
1)
b10 2!
1X
b1111 )!
10!
b1 8
b101 W
b101 V
b1111 P
b11001 K
1z
b110 c
1p
1|
15
06
1n
17
b11001 G
b11001 (!
b101 +!
1#
#222500
0!
0)
#225000
1!
1)
b1 2!
0X
b110 ~
1o
0m
0k
1q
b101 !!
00!
13!
b10 8
b0 W
b0 V
b11001 H
b1111 =
b1111 G
b1111 Q
b0 P
b11001 &!
b1111 (!
b1111 K
0z
b1 c
0p
0|
05
b110 B
16
0n
07
b1111 H
b1111 &!
b10 +!
03!
0#
#227500
0!
0)
#230000
1!
1)
b10 2!
1X
b1111 '!
10!
b1 8
b110 W
b110 V
b1111 P
b11110 K
1z
b111 c
1t
1|
15
06
1r
17
b11110 H
b11110 &!
b101 +!
1#
#232500
0!
0)
#235000
1!
1)
b1 2!
0X
b111 ~
0o
1u
1s
0q
b110 !!
00!
13!
b10 8
b0 W
b0 V
b1111 H
b0 ?
b11110 I
b1111 >
b1 P
b1111 &!
b11110 $!
b10000 K
0z
b1 c
0t
0|
05
b111 B
16
0r
07
b10000 I
b10000 $!
b10 +!
03!
0#
#237500
0!
0)
#240000
1!
1)
b10 2!
1X
b10000 %!
10!
b1 8
b111 W
b111 V
b10000 P
b11111 K
1z
b1000 c
1x
1|
15
06
1v
17
b11111 I
b11111 $!
b101 +!
1#
#242500
0!
0)
#245000
1!
1)
b1 2!
0X
b1000 ~
0u
0s
1y
1w
b111 !!
00!
13!
b10 8
b0 W
b0 V
b10000 ?
b10000 I
b0 @
b11111 J
b10000 Q
b10 P
b10000 $!
b11111 1!
b10010 K
0z
b1 c
0x
0|
05
b1000 B
16
0v
07
b10010 J
b10010 1!
0-!
b10 +!
b11 8
03!
0#
#247500
0!
0)
#250000
1!
1)
b11 2!
1Z
b10010 .
10!
b1 8
b11 Y
b10010 P
b100010 K
b100 a
15
b10010 (
06
17
b100010 J
b100010 1!
b101 +!
1#
#252500
0!
0)
#255000
1!
1)
b1 2!
0Z
b1 ~
b100 b
0{
0y
0w
b0 !!
0}
00!
13!
b11 8
b0 Y
b10010 @
b10010 J
b10010 Q
b1 P
b0 9
b10010 1!
b10011 K
b1 a
05
1R
b100 A
b1 B
16
07
1-!
b10 +!
b10 8
03!
0#
#257500
0!
0)
#260000
1!
1)
b10 2!
1X
10!
b1 8
b1 W
b1 V
1z
b10 c
1d
1|
15
06
17
b101 +!
1#
#262500
0!
0)
#265000
1!
1)
b1 2!
0X
b10 ~
1e
1{
b1 !!
1}
00!
13!
b10 8
b0 W
b0 V
b0 :
b1 Q
b11 P
b1 9
b100 K
0z
b1 c
0d
0|
05
0R
1S
1L
b10 B
16
07
b100 C
b100 "!
1M
0L
b10 +!
b100 D
b1 C
03!
b100 _
b1 "!
0#
#267500
0!
0)
#270000
1!
1)
b10 2!
1X
b100 `
10!
b1 8
b10 W
b10 V
b100 P
b101 K
1z
b11 c
1f
1|
15
06
17
b101 D
b101 _
b101 +!
1#
#272500
0!
0)
#275000
1!
1)
b1 2!
0X
b11 ~
1g
0e
b10 !!
00!
13!
b10 8
b0 W
b0 V
b0 ;
b100 :
b100 Q
b110 P
b1010 K
0z
b1 c
0f
0|
05
0S
1T
b11 B
16
07
b1010 D
b1010 _
1N
0M
b10 +!
b1010 E
b100 D
03!
b1010 ]
b100 _
0#
#277500
0!
0)
#280000
1!
1)
b10 2!
1X
b1010 ^
10!
b1 8
b11 W
b11 V
b1010 P
b1110 K
1z
b100 c
1h
1|
15
06
17
b1110 E
b1110 ]
b101 +!
1#
#282500
0!
0)
#285000
1!
1)
b1 2!
0X
b100 ~
1i
0g
b11 !!
00!
13!
b10 8
b0 W
b0 V
b0 <
b1010 ;
b1010 Q
b10100 K
0z
b1 c
0h
0|
05
0T
1U
b100 B
16
07
b10100 E
b10100 ]
1O
0N
b10 +!
b10100 F
b1010 E
03!
b10100 [
b1010 ]
0#
#287500
0!
0)
#290000
1!
1)
b10 2!
1X
b10100 \
10!
b1 8
b100 W
b100 V
b10100 P
b11110 K
1z
b101 c
1l
1|
15
06
1j
17
b11110 F
b11110 [
b101 +!
1#
#292500
0!
0)
#295000
1!
1)
b1 2!
0X
b101 ~
0i
1m
1k
b100 !!
00!
13!
b10 8
b0 W
b0 V
b10100 <
b0 =
b11110 G
b10100 Q
b1111 P
b11110 (!
b100011 K
0z
b1 c
0l
0|
05
0U
b101 B
16
0j
07
b100011 F
b100011 G
b100011 [
b100011 (!
0O
b10 +!
b10100 F
03!
b10100 [
0#
#297500
0!
0)
#300000
1!
1)
b10 2!
1X
b100011 )!
10!
b1 8
b101 W
b101 V
b100011 P
b110111 K
1z
b110 c
1p
1|
15
06
1n
17
b110111 G
b110111 (!
b101 +!
1#
#302500
0!
0)
#305000
1!
1)
b1 2!
0X
b110 ~
1o
0m
0k
1q
b101 !!
00!
13!
b10 8
b0 W
b0 V
b110111 H
b100011 =
b100011 G
b0 >
b100011 Q
b1111 P
b110111 &!
b100011 (!
b110010 K
0z
b1 c
0p
0|
05
b110 B
16
0n
07
b110010 H
b110010 &!
b10 +!
03!
0#
#307500
0!
0)
#310000
1!
1)
b10 2!
1X
b110010 '!
10!
b1 8
b110 W
b110 V
b110010 P
b1010101 K
1z
b111 c
1t
1|
15
06
1r
17
b1010101 H
b1010101 &!
b101 +!
1#
#312500
0!
0)
#315000
1!
1)
b1 2!
0X
b111 ~
0o
1u
1s
0q
b110 !!
00!
13!
b10 8
b0 W
b0 V
b110010 H
b0 ?
b1010101 I
b110010 >
b110010 Q
b10000 P
b110010 &!
b1010101 $!
b1000010 K
0z
b1 c
0t
0|
05
b111 B
16
0r
07
b1000010 I
b1000010 $!
b10 +!
03!
0#
#317500
0!
0)
#320000
1!
1)
b10 2!
1X
b1000010 %!
10!
b1 8
b111 W
b111 V
b1000010 P
b1110100 K
1z
b1000 c
1x
1|
15
06
1v
17
b1110100 I
b1110100 $!
b101 +!
1#
#322500
0!
0)
#325000
1!
1)
b1 2!
0X
b1000 ~
0u
0s
1y
1w
b111 !!
00!
13!
b10 8
b0 W
b0 V
b1000010 ?
b1000010 I
b0 @
b1110100 J
b1000010 Q
b10010 P
b1000010 $!
b1110100 1!
b1010100 K
0z
b1 c
0x
0|
05
b1000 B
16
0v
07
b1010100 J
b1010100 1!
0-!
b10 +!
b11 8
03!
0#
#327500
0!
0)
#330000
1!
1)
b11 2!
1Z
b1010100 .
10!
b1 8
b100 Y
b1010100 P
b10010110 K
b101 a
15
b1010100 (
06
17
b10010110 J
b10010110 1!
b101 +!
1#
#332500
0!
0)
#335000
1!
1)
b1 2!
0Z
b1 ~
b101 b
0{
0y
0w
b0 !!
0}
00!
13!
b11 8
b0 Y
b1010100 @
b1010100 J
b1010100 Q
b1 P
b0 9
b1010100 1!
b1010101 K
b1 a
05
1R
b101 A
b1 B
16
07
1-!
b10 +!
b10 8
03!
0#
#337500
0!
0)
#340000
1!
1)
b10 2!
1X
10!
b1 8
b1 W
b1 V
1z
b10 c
1d
1|
15
06
17
b101 +!
1#
#342500
0!
0)
#345000
1!
1)
b1 2!
0X
b10 ~
1e
1{
b1 !!
1}
00!
13!
b10 8
b0 W
b0 V
b0 :
b1 Q
b100 P
b1 9
b101 K
0z
b1 c
0d
0|
05
0R
1S
1L
b10 B
16
07
b101 C
b101 "!
1M
0L
b10 +!
b101 D
b1 C
03!
b101 _
b1 "!
0#
#347500
0!
0)
#350000
1!
1)
b10 2!
1X
b101 `
10!
b1 8
b10 W
b10 V
b101 P
b110 K
1z
b11 c
1f
1|
15
06
17
b110 D
b110 _
b101 +!
1#
#352500
0!
0)
#355000
1!
1)
b1 2!
0X
b11 ~
1g
0e
b10 !!
00!
13!
b10 8
b0 W
b0 V
b0 ;
b101 :
b101 Q
b1010 P
b1111 K
0z
b1 c
0f
0|
05
0S
1T
b11 B
16
07
b1111 D
b1111 _
1N
0M
b10 +!
b1111 E
b101 D
03!
b1111 ]
b101 _
0#
#357500
0!
0)
#360000
1!
1)
b10 2!
1X
b1111 ^
10!
b1 8
b11 W
b11 V
b1111 P
b10100 K
1z
b100 c
1h
1|
15
06
17
b10100 E
b10100 ]
b101 +!
1#
#362500
0!
0)
#365000
1!
1)
b1 2!
0X
b100 ~
1i
0g
b11 !!
00!
13!
b10 8
b0 W
b0 V
b0 <
b1111 ;
b1111 Q
b10100 P
b100011 K
0z
b1 c
0h
0|
05
0T
1U
b100 B
16
07
b100011 E
b100011 ]
1O
0N
b10 +!
b100011 F
b1111 E
03!
b100011 [
b1111 ]
0#
#367500
0!
0)
#370000
1!
1)
b10 2!
1X
b100011 \
10!
b1 8
b100 W
b100 V
b100011 P
b110010 K
1z
b101 c
1l
1|
15
06
1j
17
b110010 F
b110010 [
b101 +!
1#
#372500
0!
0)
#375000
1!
1)
b1 2!
0X
b101 ~
0i
1m
1k
b100 !!
00!
13!
b10 8
b0 W
b0 V
b100011 <
b0 =
b110010 G
b100011 Q
b110010 (!
b1000110 K
0z
b1 c
0l
0|
05
0U
b101 B
16
0j
07
b1000110 F
b1000110 G
b1000110 [
b1000110 (!
0O
b10 +!
b100011 F
03!
b100011 [
0#
#377500
0!
0)
#380000
1!
1)
b10 2!
1X
b1000110 )!
10!
b1 8
b101 W
b101 V
b1000110 P
b1101001 K
1z
b110 c
1p
1|
15
06
1n
17
b1101001 G
b1101001 (!
b101 +!
1#
#382500
0!
0)
#385000
1!
1)
b1 2!
0X
b110 ~
1o
0m
0k
1q
b101 !!
00!
13!
b10 8
b0 W
b0 V
b1101001 H
b1000110 =
b1000110 G
b0 >
b1000110 Q
b110010 P
b1101001 &!
b1000110 (!
b1111000 K
0z
b1 c
0p
0|
05
b110 B
16
0n
07
b1111000 H
b1111000 &!
b10 +!
03!
0#
#387500
0!
0)
#390000
1!
1)
b10 2!
1X
b1111000 '!
10!
b1 8
b110 W
b110 V
b1111000 P
b10111110 K
1z
b111 c
1t
1|
15
06
1r
17
b10111110 H
b10111110 &!
b101 +!
1#
#392500
0!
0)
#395000
1!
1)
b1 2!
0X
b111 ~
0o
1u
1s
0q
b110 !!
00!
13!
b10 8
b0 W
b0 V
b1111000 H
b0 ?
b10111110 I
b1111000 >
b1111000 Q
b1000010 P
b1111000 &!
b10111110 $!
b10111010 K
0z
b1 c
0t
0|
05
b111 B
16
0r
07
b10111010 I
b10111010 $!
b10 +!
03!
0#
#397500
0!
0)
