bdw_work/sims/BASIC_V/verilog.vcd
$date
    May 26, 2023  14:54:58
$end
$version
    TOOL:	xmsim(64)	22.03-s003
$end
$timescale
    1 ps
$end

$scope module top $end

$scope module dut0 $end
$var reg       1 !    clk $end
$var reg       1 "    rst $end
$var wire      1 #    din_busy  $end
$var reg       1 $    din_vld $end
$var reg       1 %    din_data $end
$var reg       1 &    dout_busy $end
$var wire      1 '    dout_vld  $end
$var wire     16 (    dout_data [15:0] $end

$scope module dut0 $end
$var wire      1 )    clk  $end
$var wire      1 *    rst  $end
$var wire      1 +    din_vld  $end
$var wire      1 ,    din_data  $end
$var wire      1 -    dout_busy  $end
$var wire      1 #    din_busy  $end
$var wire      1 '    dout_vld  $end
$var reg      16 .    dout_data [15:0] $end
$var reg       1 /    dout_m_req_m_prev_trig_req $end
$var reg       1 0    dout_m_unacked_req $end
$var wire      1 1    dut_Xor_1Ux1U_1U_1_1_out1  $end
$var wire      1 2    dut_Or_1Ux1U_1U_4_2_out1  $end
$var reg       1 3    dut_N_Muxb_1_2_16_4_4_out1 $end
$var reg       1 4    din_m_unvalidated_req $end
$var wire      1 5    dut_gen_busy_r_4_64_gnew_req  $end
$var wire      1 6    dut_gen_busy_r_4_64_gdiv  $end
$var wire      1 7    dut_gen_busy_r_4_64_din_gen_busy_din_m_data_is_invalid_next  $end
$var reg       4 8    global_state_next [3:0] $end
$var wire      5 9    dut_LessThan_1U_17_1_61_in1 [4:0] $end
$var reg      16 :    dut_N_Mux_16_2_25_4_59_out1 [15:0] $end
$var wire      1 ;    dut_And_1Ux1U_1U_4_58_out1  $end
$var wire      5 <    dut_LessThan_1U_17_1_56_in1 [4:0] $end
$var reg      16 =    dut_N_Mux_16_2_26_4_55_out1 [15:0] $end
$var wire      1 >    dut_Not_1U_1U_4_54_out1  $end
$var reg      16 ?    dut_N_Mux_16_2_25_4_52_out1 [15:0] $end
$var wire      1 @    dut_And_1Ux1U_1U_4_51_out1  $end
$var reg      16 A    dut_N_Mux_16_2_24_4_49_out1 [15:0] $end
$var reg      16 B    dut_N_Mux_16_2_25_4_46_out1 [15:0] $end
$var wire      1 C    dut_And_1Ux1U_1U_4_45_out1  $end
$var reg      16 D    dut_N_Mux_16_2_24_4_44_out1 [15:0] $end
$var reg      16 E    dut_N_Mux_16_2_25_4_42_out1 [15:0] $end
$var wire      1 F    dut_And_1Ux1U_1U_4_41_out1  $end
$var reg      16 G    dut_N_Mux_16_2_24_4_40_out1 [15:0] $end
$var reg      16 H    dut_N_Mux_16_2_25_4_37_out1 [15:0] $end
$var wire      1 I    dut_And_1Ux1U_1U_4_36_out1  $end
$var reg      16 J    dut_N_Mux_16_2_24_4_35_out1 [15:0] $end
$var reg      16 K    dut_N_Mux_16_2_25_4_32_out1 [15:0] $end
$var reg      16 L    dut_N_Mux_16_2_25_4_31_out1 [15:0] $end
$var wire      1 M    dut_And_1Ux1U_1U_4_29_out1  $end
$var reg      16 N    dut_N_Mux_16_2_24_4_28_out1 [15:0] $end
$var reg      16 O    dut_N_Mux_16_2_24_4_27_out1 [15:0] $end
$var reg      16 P    dut_N_Mux_16_8_23_4_26_out1 [15:0] $end
$var reg      16 Q    dut_N_Mux_16_8_22_4_25_out1 [15:0] $end
$var reg      16 R    dut_N_Mux_16_2_24_4_11_in2 [15:0] $end
$var reg       1 S    gs_ctrl_thread1_h300 $end
$var wire      1 T    dut_Equal_1U_14_4_8_out1  $end
$var reg       3 U    dut_Equal_1U_14_4_8_in1 [2:0] $end
$var reg       4 V    dut_GreaterThan_1U_15_4_7_in1_slice [3:0] $end
$var reg       1 W    gs_ctrl_thread1_h100 $end
$var reg       3 X    dut_Add_4U_6_4_6_in1 [2:0] $end
$var reg       1 Y    gs_ctrl_thread1_h200 $end
$var reg      16 Z    dut_N_Mux_16_2_25_4_43_out1 [15:0] $end
$var reg      16 [    s_reg_9 [15:0] $end
$var reg      16 \    dut_N_Mux_16_2_25_4_47_out1 [15:0] $end
$var reg      16 ]    s_reg_8 [15:0] $end
$var reg      16 ^    dut_N_Mux_16_2_25_4_53_out1 [15:0] $end
$var reg      16 _    s_reg_7 [15:0] $end
$var wire      4 `    dut_Add_4U_6_4_6_out1 [3:0] $end
$var reg       4 a    s_reg_6_slice [3:0] $end
$var wire     16 b    dut_Add_16Ux16U_16U_4_30_out1 [15:0] $end
$var reg      16 c    s_reg_32 [15:0] $end
$var wire      1 d    dut_Equal_1U_5_4_24_out1  $end
$var reg       1 e    s_reg_27 $end
$var wire      1 f    dut_Equal_1U_8_4_23_out1  $end
$var reg       1 g    s_reg_26 $end
$var reg       1 h    s_reg_23 $end
$var wire      1 i    dut_Equal_1U_11_4_21_out1  $end
$var wire      1 j    dut_Equal_1U_12_4_16_out1  $end
$var reg       1 k    s_reg_21 $end
$var wire      1 l    dut_Equal_1U_10_4_22_out1  $end
$var wire      1 m    dut_Equal_1U_13_4_12_out1  $end
$var wire      1 n    dut_And_1Ux1U_1U_4_15_out1  $end
$var reg       1 o    s_reg_20 $end
$var reg      16 p    dut_N_Mux_16_2_24_4_11_out1 [15:0] $end
$var reg      16 q    s_reg_19 [15:0] $end
$var wire      1 r    dut_OrReduction_3U_1U_4_48_out1  $end
$var wire      1 s    dut_And_1Ux1U_1U_4_10_out1  $end
$var reg       1 t    s_reg_18 $end
$var wire      1 u    dut_GreaterThan_1U_15_4_7_out1  $end
$var reg       1 v    s_reg_17 $end
$var wire      4 w    dut_Add_4U_6_4_50_out1 [3:0] $end
$var reg       4 x    s_reg_15_slice [3:0] $end
$var reg      16 y    dut_N_Mux_16_2_25_4_60_out1 [15:0] $end
$var reg      16 z    s_reg_14 [15:0] $end
$var reg      16 {    dut_N_Mux_16_2_25_4_33_out1 [15:0] $end
$var reg      16 |    s_reg_12 [15:0] $end
$var reg      16 }    dut_N_Mux_16_2_25_4_34_out1 [15:0] $end
$var reg      16 ~    s_reg_11 [15:0] $end
$var reg      16 !!   dut_N_Mux_16_2_25_4_38_out1 [15:0] $end
$var reg      16 "!   s_reg_10 [15:0] $end
$var wire      1 #!   dut_And_1Ux1U_1U_4_62_out1  $end
$var wire      3 $!   dut_gen_busy_r_4_64_out1 [2:0] $end
$var wire      1 %!   dut_Not_1U_1U_1_3_out1  $end
$var wire      1 &!   dut_LessThan_1U_17_1_56_out1  $end
$var wire      1 '!   dut_LessThan_1U_17_1_61_out1  $end
$var reg       1 (!   dout_m_req_m_trig_req $end
$var reg       1 )!   din_m_busy_req_0 $end
$var reg      16 *!   dut_N_Mux_16_2_25_4_57_out1 [15:0] $end
$var reg      16 +!   dut_N_Mux_16_2_25_4_39_out1 [15:0] $end
$var reg       4 ,!   global_state [3:0] $end
$var reg       1 -!   stall0 $end
$upscope $end

$upscope $end

$upscope $end

$enddefinitions $end
$dumpvars
1!
0"
1#
0$
0%
1&
0'
bx (
1)
0*
0+
0,
1-
bx .
0/
00
01
02
13
14
15
06
17
b1 8
b0xxxx 9
bx :
x;
b0xxxx <
bx =
x>
bx ?
x@
bx A
bx B
xC
bx D
bx E
xF
bx G
bx H
xI
bx J
bx K
bx L
xM
bx N
bx O
bx P
bx Q
b0 R
0S
0T
b0 U
b0 V
0W
b0 X
0Y
bx Z
bx [
bx \
bx ]
bx ^
bx _
b1 `
bx a
bx b
bx c
xd
xe
xf
xg
xh
xi
xj
xk
xl
xm
xn
xo
b0 p
bx q
xr
0s
xt
0u
xv
bx w
bx x
bx y
bx z
bx {
bx |
bx }
bx ~
bx !!
bx "!
0#!
b101 $!
1%!
x&!
x'!
0(!
1)!
bx *!
bx +!
b0 ,!
0-!
$end
#2500
0!
0)
#5000
1!
1)
b0 _
b0 ]
b0 [
b1 a
0t
b0 q
b1 z
b0 x
0v
b0 "!
b0 ~
b0 |
b0 .
b0 Q
b1 P
b0 A
b0 ?
b0 D
b0 B
b0 G
b0 E
b0 +!
b0 =
b0 *!
b1 :
b0 J
b0 H
b0 N
b0 K
b0 O
b0 L
b0 ^
b0 \
b0 Z
b1 y
b0 !!
b0 }
b0 {
b1 b
0;
0@
0C
0F
0I
0M
0n
b0 <
b1 w
0r
0d
0f
0l
0i
0j
0m
1>
b1 9
b0 (
1'!
1&!
#7500
0!
0)
#10000
1!
1)
1"
1*
#12500
0!
0)
#15000
1!
1)
b1 ,!
0)!
1-!
b10 8
03
05
b1 $!
0#
1$
0&
0-
1+
16
07
13
b10 $!
0-!
#17500
0!
0)
#20000
1!
1)
b10 ,!
0k
0o
0h
1)!
b11 8
15
06
17
b101 $!
1#
#22500
0!
0)
#25000
1!
1)
b11 ,!
0e
b1 c
0g
b100 8
#27500
0!
0)
#30000
1!
1)
b100 ,!
b101 8
#32500
0!
0)
#35000
1!
1)
b101 ,!
b110 8
#37500
0!
0)
#40000
1!
1)
b110 ,!
b111 8
#42500
0!
0)
#45000
1!
1)
b111 ,!
b1 x
b1000 8
b1 Q
b0 P
b1 <
b10 w
1r
1d
#47500
0!
0)
#50000
1!
1)
b1000 ,!
1W
1S
b1 8
b1 V
b1 U
1u
#52500
0!
0)
#55000
1!
1)
b1 ,!
0W
0S
1v
0)!
1-!
b10 8
b0 V
b0 U
0u
05
1;
16
07
b10 $!
0-!
0#
#57500
0!
0)
#60000
1!
1)
b10 ,!
1)!
b11 8
15
06
17
b101 $!
1#
#62500
0!
0)
#65000
1!
1)
b11 ,!
1e
b100 8
1@
b1 ?
b1 ^
#67500
0!
0)
#70000
1!
1)
b100 ,!
b101 8
#72500
0!
0)
#75000
1!
1)
b101 ,!
b110 8
#77500
0!
0)
#80000
1!
1)
b110 ,!
b111 8
#82500
0!
0)
#85000
1!
1)
b111 ,!
b1 _
1t
b10 x
b1000 8
b1 +!
b1 =
b10 <
b11 w
0d
1f
0>
0;
#87500
0!
0)
#90000
1!
1)
b1000 ,!
1W
1S
b1 8
b10 V
b10 U
1u
#92500
0!
0)
#95000
1!
1)
b1 ,!
0W
0S
0t
0)!
1-!
b10 8
b0 V
b0 U
b0 +!
b0 =
0u
05
1>
16
07
1;
b10 $!
0-!
0#
#97500
0!
0)
#100000
1!
1)
b10 ,!
1)!
b11 8
15
06
17
b101 $!
1#
#102500
0!
0)
#105000
1!
1)
b11 ,!
0e
1g
b100 8
b1 A
1C
0@
b1 B
b1 \
#107500
0!
0)
#110000
1!
1)
b100 ,!
b101 8
#112500
0!
0)
#115000
1!
1)
b101 ,!
b110 8
#117500
0!
0)
#120000
1!
1)
b110 ,!
b1 ]
b111 8
b1 P
b10 b
#122500
0!
0)
#125000
1!
1)
b111 ,!
1t
b11 x
b1000 8
b1 +!
b1 =
b0 P
b1 b
b11 <
b100 w
0f
1l
0>
0;
#127500
0!
0)
#130000
1!
1)
b1000 ,!
1W
1S
b1 8
b11 V
b11 U
1u
#132500
0!
0)
#135000
1!
1)
b1 ,!
0W
0S
0t
0)!
1-!
b10 8
b0 V
b0 U
b0 +!
b0 =
0u
05
1>
16
07
1;
b10 $!
0-!
0#
#137500
0!
0)
#140000
1!
1)
b10 ,!
1)!
b11 8
15
06
17
b101 $!
1#
#142500
0!
0)
#145000
1!
1)
b11 ,!
0g
1o
b100 8
b1 D
b1 L
b1 {
1F
0C
b1 E
b1 Z
#147500
0!
0)
#150000
1!
1)
b100 ,!
b101 8
#152500
0!
0)
#155000
1!
1)
b101 ,!
b1 [
b110 8
b1 P
b10 b
b10 L
b10 {
#157500
0!
0)
#160000
1!
1)
b110 ,!
b111 8
#162500
0!
0)
#165000
1!
1)
b111 ,!
1t
b100 x
b1000 8
b1 +!
b1 =
b0 P
b1 b
b100 <
b101 w
0l
1i
0>
b1 L
b1 {
0;
#167500
0!
0)
#170000
1!
1)
b1000 ,!
1W
1S
b1 8
b100 V
b100 U
1u
#172500
0!
0)
#175000
1!
1)
b1 ,!
0W
0S
0t
0)!
1-!
b10 8
b0 V
b0 U
b0 +!
b0 =
0u
05
1>
16
07
1;
b10 $!
0-!
0#
#177500
0!
0)
#180000
1!
1)
b10 ,!
0o
1)!
b11 8
b0 L
b1 G
b0 {
15
0F
06
17
b101 $!
1#
#182500
0!
0)
#185000
1!
1)
b11 ,!
1k
b100 8
1I
b1 H
b1 !!
#187500
0!
0)
#190000
1!
1)
b100 ,!
b1 "!
b101 8
b1 P
b10 b
#192500
0!
0)
#195000
1!
1)
b101 ,!
b110 8
#197500
0!
0)
#200000
1!
1)
b110 ,!
b111 8
#202500
0!
0)
#205000
1!
1)
b111 ,!
1t
b101 x
b1000 8
b1 +!
b1 =
b0 P
b1 b
b101 <
b110 w
0i
1j
0>
0;
1M
b1 K
b1 }
#207500
0!
0)
#210000
1!
1)
b1000 ,!
1W
1S
b1 8
b101 V
b101 U
1u
#212500
0!
0)
#215000
1!
1)
b1 ,!
0W
0S
0t
0)!
1-!
b10 8
b0 V
b0 U
b0 +!
b0 =
0u
05
1>
16
07
1;
b10 $!
0-!
0#
#217500
0!
0)
#220000
1!
1)
b10 ,!
1)!
b11 8
15
06
17
b101 $!
1#
#222500
0!
0)
#225000
1!
1)
b11 ,!
0k
b1 ~
b100 8
b1 N
b1 J
b1 P
b10 b
0I
b10 K
b10 }
#227500
0!
0)
#230000
1!
1)
b100 ,!
b101 8
#232500
0!
0)
#235000
1!
1)
b101 ,!
b110 8
#237500
0!
0)
#240000
1!
1)
b110 ,!
b111 8
#242500
0!
0)
#245000
1!
1)
b111 ,!
1t
b110 x
b1000 8
b1 +!
b1 =
b0 P
b1 b
b110 <
b111 w
0j
1m
0>
b1 K
b1 }
0;
1n
0M
#247500
0!
0)
#250000
1!
1)
b1000 ,!
1W
1S
b1 8
b110 V
b110 U
1u
#252500
0!
0)
#255000
1!
1)
b1 ,!
0W
0S
0t
0)!
1-!
b10 8
b0 V
b0 U
b0 +!
b0 =
0u
05
1>
16
07
1;
b10 $!
0-!
0#
#257500
0!
0)
#260000
1!
1)
b10 ,!
1o
1)!
b11 8
b1 L
b0 G
b1 {
15
1F
06
17
b101 $!
1#
#262500
0!
0)
#265000
1!
1)
b11 ,!
0o
b1 |
b100 8
b1 O
b1 G
b1 P
b10 b
0F
#267500
0!
0)
#270000
1!
1)
b100 ,!
b101 8
#272500
0!
0)
#275000
1!
1)
b101 ,!
b110 8
#277500
0!
0)
#280000
1!
1)
b110 ,!
b111 8
#282500
0!
0)
#285000
1!
1)
b111 ,!
1t
b111 x
b1000 8
b1 +!
b1 =
b0 P
b1 b
b111 <
b1000 w
0m
0>
0;
0n
#287500
0!
0)
#290000
1!
1)
b1000 ,!
1W
1S
b1 8
b111 V
b111 U
1T
1u
1s
#292500
0!
0)
#295000
1!
1)
b1 ,!
0W
0S
0)!
1-!
b10 8
b0 V
b0 U
0T
0u
05
16
0s
07
b10 $!
0-!
0#
#297500
0!
0)
#300000
1!
1)
b10 ,!
1)!
b11 8
15
06
17
b101 $!
1#
#302500
0!
0)
#305000
1!
1)
b11 ,!
b100 8
#307500
0!
0)
#310000
1!
1)
b100 ,!
b1 .
b101 8
b1 P
b1 *!
b10 b
b1 (
#312500
0!
0)
#315000
1!
1)
b101 ,!
b110 8
#317500
0!
0)
#320000
1!
1)
b110 ,!
b111 8
#322500
0!
0)
#325000
1!
1)
b111 ,!
b1000 x
b1000 8
b1000 <
b1 w
0r
0&!
b1001 8
#327500
0!
0)
#330000
1!
1)
b1001 ,!
1Y
1S
b1 8
b1 X
b1 R
b1 p
b10 `
#332500
0!
0)
#335000
1!
1)
b1 ,!
0Y
0S
b10 a
0t
b1 q
b0 x
0v
0)!
1-!
b10 8
b0 X
b0 R
b0 =
b0 p
b1 `
05
b0 <
1>
b10 9
16
07
1&!
b10 $!
0-!
0#
#337500
0!
0)
#340000
1!
1)
b10 ,!
1)!
b11 8
15
06
17
b101 $!
1#
#342500
0!
0)
#345000
1!
1)
b11 ,!
b10 c
b100 8
#347500
0!
0)
#350000
1!
1)
b100 ,!
b101 8
#352500
0!
0)
#355000
1!
1)
b101 ,!
b110 8
#357500
0!
0)
#360000
1!
1)
b110 ,!
b111 8
#362500
0!
0)
#365000
1!
1)
b111 ,!
b1 x
b1000 8
b1 <
b10 w
1r
1d
#367500
0!
0)
#370000
1!
1)
b1000 ,!
1W
1S
b1 8
b1 V
b1 U
b1 R
b1 p
1u
#372500
0!
0)
#375000
1!
1)
b1 ,!
0W
0S
1v
0)!
1-!
b10 8
b0 V
b0 U
b0 R
b0 p
0u
05
1;
16
07
b10 :
b10 y
b10 $!
0-!
0#
#377500
0!
0)
#380000
1!
1)
b10 ,!
1)!
b11 8
15
06
17
b101 $!
1#
#382500
0!
0)
#385000
1!
1)
b11 ,!
1e
b100 8
b0 A
1@
b10 ?
b10 ^
#387500
0!
0)
#390000
1!
1)
b100 ,!
b101 8
#392500
0!
0)
#395000
1!
1)
b101 ,!
b110 8
#397500
0!
0)
#400000
1!
1)
b110 ,!
b111 8
#402500
0!
0)
#405000
1!
1)
b111 ,!
b10 _
1t
b10 x
b1000 8
b10 Q
b10 +!
b1 =
b11 b
b10 <
b11 w
0d
1f
0>
0;
b1 :
b1 y
#407500
0!
0)
#410000
1!
1)
b1000 ,!
1W
1S
b1 8
b10 V
b10 U
b1 R
b1 p
1u
#412500
0!
0)
#415000
1!
1)
b1 ,!
0W
0S
0t
0)!
1-!
b10 8
b0 V
b0 U
b0 R
b1 +!
b0 =
b0 p
0u
05
1>
16
07
1;
b10 $!
b10 :
0-!
b10 y
0#
#417500
0!
0)
#420000
1!
1)
b10 ,!
1)!
b11 8
15
06
17
b101 $!
1#
#422500
0!
0)
#425000
1!
1)
b11 ,!
0e
b11 c
1g
b100 8
b10 A
b11 ?
b11 :
b0 D
b11 ^
b11 y
1C
0@
b11 B
b10 ?
b11 \
b10 ^
#427500
0!
0)
#430000
1!
1)
b100 ,!
b101 8
#432500
0!
0)
#435000
1!
1)
b101 ,!
b110 8
#437500
0!
0)
#440000
1!
1)
b110 ,!
b11 ]
b111 8
b11 P
b101 b
#442500
0!
0)
#445000
1!
1)
b111 ,!
1t
b11 x
b1000 8
b11 +!
b1 =
b11 Q
b1 P
b100 b
b11 <
b100 w
0f
1l
0>
0;
b1 :
b1 y
#447500
0!
0)
#450000
1!
1)
b1000 ,!
1W
1S
b1 8
b11 V
b11 U
b1 R
b1 p
1u
#452500
0!
0)
#455000
1!
1)
b1 ,!
0W
0S
0t
0)!
1-!
b10 8
b0 V
b0 U
b0 R
b1 +!
b0 =
b0 p
0u
05
1>
16
07
1;
b10 $!
b11 :
0-!
b11 y
0#
#457500
0!
0)
#460000
1!
1)
b10 ,!
1)!
b11 8
15
06
17
b101 $!
1#
#462500
0!
0)
#465000
1!
1)
b11 ,!
b100 c
0g
1o
b100 8
b100 B
b100 :
b11 D
b0 O
b100 L
b0 G
b100 \
b100 y
b100 {
1F
0C
b100 E
b11 B
b100 Z
b11 \
#467500
0!
0)
#470000
1!
1)
b100 ,!
b101 8
#472500
0!
0)
#475000
1!
1)
b101 ,!
b100 [
b110 8
b100 P
b111 b
b111 L
b111 {
#477500
0!
0)
#480000
1!
1)
b110 ,!
b111 8
#482500
0!
0)
#485000
1!
1)
b111 ,!
1t
b100 x
b1000 8
b100 +!
b1 =
b100 Q
b1 P
b101 b
b100 <
b101 w
0l
1i
0>
b101 L
b101 {
0;
b1 :
b1 y
#487500
0!
0)
#490000
1!
1)
b1000 ,!
1W
1S
b1 8
b100 V
b100 U
b1 R
b1 p
1u
#492500
0!
0)
#495000
1!
1)
b1 ,!
0W
0S
0t
0)!
1-!
b10 8
b0 V
b0 U
b0 R
b1 +!
b0 =
b0 p
0u
05
1>
16
07
1;
b10 $!
b100 :
0-!
b100 y
0#
#497500
0!
0)
#500000
1!
1)
b10 ,!
0o
1)!
b11 8
b1 O
b1 L
b100 G
b1 {
15
0F
06
17
b101 $!
1#
1%
1,
#502500
0!
0)
#505000
1!
1)
b11 ,!
b101 c
1k
b100 8
b101 :
b0 N
b0 J
b101 y
1I
b101 H
b101 !!
#507500
0!
0)
#510000
1!
1)
b100 ,!
b101 "!
b101 8
b101 P
b1001 b
#512500
0!
0)
#515000
1!
1)
b101 ,!
b110 8
#517500
0!
0)
#520000
1!
1)
b110 ,!
b111 8
#522500
0!
0)
#525000
1!
1)
b111 ,!
1t
b101 x
b1000 8
b101 +!
b1 =
b101 Q
b1 P
b110 b
b101 <
b110 w
0i
1j
0>
0;
1M
b1 :
b110 K
b1 y
b110 }
#527500
0!
0)
#530000
1!
1)
b1000 ,!
1W
1S
b1 8
b101 V
b101 U
b1 R
b1 p
1u
#532500
0!
0)
#535000
1!
1)
b1 ,!
0W
0S
0t
0)!
1-!
b10 8
b0 V
b0 U
b0 R
b1 +!
b0 =
b0 p
0u
05
1>
16
07
1;
b10 $!
b101 :
0-!
b101 y
0#
#537500
0!
0)
#540000
1!
1)
b10 ,!
1h
1)!
b11 8
b0 }
b0 !!
b0 y
15
06
17
b101 $!
1#
0%
0,
#542500
0!
0)
#545000
1!
1)
b11 ,!
b110 c
0k
b0 ~
b100 8
b110 H
b110 :
b101 J
b0 P
b101 !!
b101 b
0I
b101 K
b101 H
#547500
0!
0)
#550000
1!
1)
b100 ,!
b101 8
#552500
0!
0)
#555000
1!
1)
b101 ,!
b110 8
#557500
0!
0)
#560000
1!
1)
b110 ,!
b111 8
#562500
0!
0)
#565000
1!
1)
b111 ,!
1t
b110 x
b1000 8
b110 +!
b1 =
b0 Q
b1 P
b1 y
b1 b
b110 <
b111 w
0j
1m
0>
b1 K
0;
1n
0M
b1 :
b0 K
#567500
0!
0)
#570000
1!
1)
b1000 ,!
1W
1S
b1 8
b110 V
b110 U
b1 R
b1 p
1u
#572500
0!
0)
#575000
1!
1)
b1 ,!
0W
0S
0t
0)!
1-!
b10 8
b0 V
b0 U
b0 R
b1 +!
b0 =
b0 p
b0 y
0u
05
1>
16
07
1;
b10 $!
b110 :
0-!
0#
#577500
0!
0)
#580000
1!
1)
b10 ,!
1o
0h
1)!
b11 8
b0 O
b0 G
b110 y
15
1F
06
17
b110 E
b110 Z
b101 $!
1#
#582500
0!
0)
#585000
1!
1)
b11 ,!
b1 c
0o
b100 8
b1 E
b1 :
b1 O
b100 G
b1 Z
b1 y
0F
b100 E
b100 Z
#587500
0!
0)
#590000
1!
1)
b100 ,!
b101 8
#592500
0!
0)
#595000
1!
1)
b101 ,!
b110 8
#597500
0!
0)
#600000
1!
1)
b110 ,!
b111 8
#602500
0!
0)
#605000
1!
1)
b111 ,!
1t
b111 x
b1000 8
b1 =
b1 Q
b10 b
b111 <
b1000 w
0m
0>
0;
0n
#607500
0!
0)
#610000
1!
1)
b1000 ,!
1W
1S
b1 8
b111 V
b111 U
b1 R
b1 p
1T
1u
1s
b0 p
#612500
0!
0)
#615000
1!
1)
b1 ,!
0W
0S
b0 q
0)!
1-!
b10 8
b0 V
b0 U
b0 R
0T
0u
05
16
0s
07
b10 $!
0-!
0#
#617500
0!
0)
#620000
1!
1)
b10 ,!
1)!
b11 8
15
06
17
b101 $!
1#
#622500
0!
0)
#625000
1!
1)
b11 ,!
b10 c
b100 8
b10 +!
#627500
0!
0)
#630000
1!
1)
b100 ,!
b10 .
b101 8
b10 P
b10 *!
b11 b
b10 (
#632500
0!
0)
#635000
1!
1)
b101 ,!
b110 8
#637500
0!
0)
#640000
1!
1)
b110 ,!
b111 8
#642500
0!
0)
#645000
1!
1)
b111 ,!
b1000 x
b1000 8
b10 Q
b1 P
b1000 <
b1 w
0r
0&!
b1001 8
#647500
0!
0)
#650000
1!
1)
b1001 ,!
1Y
1S
b1 8
b10 X
b10 R
b10 p
b11 `
#652500
0!
0)
#655000
1!
1)
b1 ,!
0Y
0S
b11 a
0t
b10 q
b0 x
0v
0)!
1-!
b10 8
b0 X
b0 R
b0 =
b0 p
b1 `
05
b0 <
1>
b11 9
16
07
1&!
b10 $!
0-!
0#
#657500
0!
0)
#660000
1!
1)
b10 ,!
1)!
b11 8
15
06
17
b101 $!
1#
#662500
0!
0)
#665000
1!
1)
b11 ,!
b11 c
b100 8
#667500
0!
0)
#670000
1!
1)
b100 ,!
b101 8
#672500
0!
0)
#675000
1!
1)
b101 ,!
b110 8
#677500
0!
0)
#680000
1!
1)
b110 ,!
b111 8
#682500
0!
0)
#685000
1!
1)
b111 ,!
b1 x
b1000 8
b1 Q
b10 P
b1 <
b10 w
1r
1d
#687500
0!
0)
#690000
1!
1)
b1000 ,!
1W
1S
b1 8
b1 V
b1 U
b10 R
b10 p
1u
#692500
0!
0)
#695000
1!
1)
b1 ,!
0W
0S
1v
0)!
1-!
b10 8
b0 V
b0 U
b0 R
b0 p
0u
05
1;
16
07
b11 :
b11 y
b10 $!
0-!
0#
#697500
0!
0)
#700000
1!
1)
b10 ,!
1)!
b11 8
15
06
17
b101 $!
1#
#702500
0!
0)
#705000
1!
1)
b11 ,!
1e
b100 8
b0 A
1@
b11 ?
b11 ^
#707500
0!
0)
#710000
1!
1)
b100 ,!
b101 8
#712500
0!
0)
#715000
1!
1)
b101 ,!
b110 8
#717500
0!
0)
#720000
1!
1)
b110 ,!
b111 8
#722500
0!
0)
#725000
1!
1)
b111 ,!
b11 _
1t
b10 x
b1000 8
b11 Q
b11 P
b11 +!
b1 =
b110 b
b10 <
b11 w
0d
1f
0>
0;
b1 :
b1 y
#727500
0!
0)
#730000
1!
1)
b1000 ,!
1W
1S
b1 8
b10 V
b10 U
b10 R
b10 p
1u
#732500
0!
0)
#735000
1!
1)
b1 ,!
0W
0S
0t
0)!
1-!
b10 8
b0 V
b0 U
b0 R
b10 +!
b0 =
b0 p
0u
05
1>
16
07
1;
b10 $!
b11 :
0-!
b11 y
0#
#737500
0!
0)
#740000
1!
1)
b10 ,!
1)!
b11 8
15
06
17
b101 $!
1#
#742500
0!
0)
#745000
1!
1)
b11 ,!
0e
b110 c
1g
b100 8
b11 A
b110 ?
b110 :
b0 D
b110 ^
b110 y
1C
0@
b110 B
b11 ?
b110 \
b11 ^
#747500
0!
0)
#750000
1!
1)
b100 ,!
b101 8
#752500
0!
0)
#755000
1!
1)
b101 ,!
b110 8
#757500
0!
0)
#760000
1!
1)
b110 ,!
b110 ]
b111 8
b110 P
b1001 b
#762500
0!
0)
#765000
1!
1)
b111 ,!
1t
b11 x
b1000 8
b110 +!
b1 =
b110 Q
b100 P
b1010 b
b11 <
b100 w
0f
1l
0>
0;
b1 :
b1 y
#767500
0!
0)
#770000
1!
1)
b1000 ,!
1W
1S
b1 8
b11 V
b11 U
b10 R
b10 p
1u
#772500
0!
0)
#775000
1!
1)
b1 ,!
0W
0S
0t
0)!
1-!
b10 8
b0 V
b0 U
b0 R
b10 +!
b0 =
b0 p
0u
05
1>
16
07
1;
b10 $!
b110 :
0-!
b110 y
0#
#777500
0!
0)
#780000
1!
1)
b10 ,!
1)!
b11 8
15
06
17
b101 $!
1#
#782500
0!
0)
#785000
1!
1)
b11 ,!
b1010 c
0g
1o
b100 8
b1010 B
b1010 :
b110 D
b0 O
b1010 L
b0 G
b1010 \
b1010 y
b1010 {
1F
0C
b1010 E
b110 B
b1010 Z
b110 \
#787500
0!
0)
#790000
1!
1)
b100 ,!
b101 8
#792500
0!
0)
#795000
1!
1)
b101 ,!
b1010 [
b110 8
b1010 P
b10000 b
b10000 L
b10000 {
#797500
0!
0)
#800000
1!
1)
b110 ,!
b111 8
#802500
0!
0)
#805000
1!
1)
b111 ,!
1t
b100 x
b1000 8
b1010 +!
b1 =
b1010 Q
b101 P
b1111 b
b100 <
b101 w
0l
1i
0>
b1111 L
b1111 {
0;
b1 :
b1 y
#807500
0!
0)
#810000
1!
1)
b1000 ,!
1W
1S
b1 8
b100 V
b100 U
b10 R
b10 p
1u
#812500
0!
0)
#815000
1!
1)
b1 ,!
0W
0S
0t
0)!
1-!
b10 8
b0 V
b0 U
b0 R
b10 +!
b0 =
b0 p
0u
05
1>
16
07
1;
b10 $!
b1010 :
0-!
b1010 y
0#
#817500
0!
0)
#820000
1!
1)
b10 ,!
0o
1)!
b11 8
b1 O
b1 L
b1010 G
b1 {
15
0F
06
17
b101 $!
1#
#822500
0!
0)
#825000
1!
1)
b11 ,!
b1111 c
1k
b100 8
b1111 :
b0 J
b1111 y
1I
b1111 H
b1111 !!
#827500
0!
0)
#830000
1!
1)
b100 ,!
b1111 "!
b101 8
b1111 P
b11001 b
#832500
0!
0)
#835000
1!
1)
b101 ,!
b110 8
#837500
0!
0)
#840000
1!
1)
b110 ,!
b111 8
#842500
0!
0)
#845000
1!
1)
b111 ,!
1t
b101 x
b1000 8
b1111 +!
b1 =
b1111 Q
b0 P
b1111 b
b101 <
b110 w
0i
1j
0>
0;
1M
b1 :
b1111 K
b1 y
b1111 }
#847500
0!
0)
#850000
1!
1)
b1000 ,!
1W
1S
b1 8
b101 V
b101 U
b10 R
b10 p
1u
#852500
0!
0)
#855000
1!
1)
b1 ,!
0W
0S
0t
0)!
1-!
b10 8
b0 V
b0 U
b0 R
b10 +!
b0 =
b0 p
0u
05
1>
16
07
1;
b10 $!
b1111 :
0-!
b1111 y
0#
#857500
0!
0)
#860000
1!
1)
b10 ,!
1)!
b11 8
15
06
17
b101 $!
1#
#862500
0!
0)
#865000
1!
1)
b11 ,!
0k
b1111 ~
b100 8
b1111 N
b1111 J
b1111 P
b11110 b
0I
b11110 K
b11110 }
#867500
0!
0)
#870000
1!
1)
b100 ,!
b101 8
#872500
0!
0)
#875000
1!
1)
b101 ,!
b110 8
#877500
0!
0)
#880000
1!
1)
b110 ,!
b111 8
#882500
0!
0)
#885000
1!
1)
b111 ,!
1t
b110 x
b1000 8
b1111 +!
b1 =
b1 P
b10000 b
b110 <
b111 w
0j
1m
0>
b10000 K
b10000 }
0;
1n
0M
b1 :
b1111 K
b1 y
b1111 }
#887500
0!
0)
